Geometry file
Geometry file
node id assign
element id assign
coordinates
    1071
 0.00000e+00-1.00000e+00 0.00000e+00
 4.00000e-01-1.00000e+00 0.00000e+00
 8.00000e-01-1.00000e+00 0.00000e+00
 1.20000e+00-1.00000e+00 0.00000e+00
 1.60000e+00-1.00000e+00 0.00000e+00
 2.00000e+00-1.00000e+00 0.00000e+00
 2.40000e+00-1.00000e+00 0.00000e+00
 2.80000e+00-1.00000e+00 0.00000e+00
 3.20000e+00-1.00000e+00 0.00000e+00
 3.60000e+00-1.00000e+00 0.00000e+00
 4.00000e+00-1.00000e+00 0.00000e+00
 4.40000e+00-1.00000e+00 0.00000e+00
 4.80000e+00-1.00000e+00 0.00000e+00
 5.20000e+00-1.00000e+00 0.00000e+00
 5.60000e+00-1.00000e+00 0.00000e+00
 6.00000e+00-1.00000e+00 0.00000e+00
 6.40000e+00-1.00000e+00 0.00000e+00
 6.80000e+00-1.00000e+00 0.00000e+00
 7.20000e+00-1.00000e+00 0.00000e+00
 7.60000e+00-1.00000e+00 0.00000e+00
 8.00000e+00-1.00000e+00 0.00000e+00
 8.40000e+00-1.00000e+00 0.00000e+00
 8.80000e+00-1.00000e+00 0.00000e+00
 9.20000e+00-1.00000e+00 0.00000e+00
 9.60000e+00-1.00000e+00 0.00000e+00
 1.00000e+01-1.00000e+00 0.00000e+00
 1.04000e+01-1.00000e+00 0.00000e+00
 1.08000e+01-1.00000e+00 0.00000e+00
 1.12000e+01-1.00000e+00 0.00000e+00
 1.16000e+01-1.00000e+00 0.00000e+00
 1.20000e+01-1.00000e+00 0.00000e+00
 1.24000e+01-1.00000e+00 0.00000e+00
 1.28000e+01-1.00000e+00 0.00000e+00
 1.32000e+01-1.00000e+00 0.00000e+00
 1.36000e+01-1.00000e+00 0.00000e+00
 1.40000e+01-1.00000e+00 0.00000e+00
 1.44000e+01-1.00000e+00 0.00000e+00
 1.48000e+01-1.00000e+00 0.00000e+00
 1.52000e+01-1.00000e+00 0.00000e+00
 1.56000e+01-1.00000e+00 0.00000e+00
 1.60000e+01-1.00000e+00 0.00000e+00
 1.64000e+01-1.00000e+00 0.00000e+00
 1.68000e+01-1.00000e+00 0.00000e+00
 1.72000e+01-1.00000e+00 0.00000e+00
 1.76000e+01-1.00000e+00 0.00000e+00
 1.80000e+01-1.00000e+00 0.00000e+00
 1.84000e+01-1.00000e+00 0.00000e+00
 1.88000e+01-1.00000e+00 0.00000e+00
 1.92000e+01-1.00000e+00 0.00000e+00
 1.96000e+01-1.00000e+00 0.00000e+00
 2.00000e+01-1.00000e+00 0.00000e+00
 0.00000e+00-9.00000e-01 0.00000e+00
 4.00000e-01-9.00000e-01 0.00000e+00
 8.00000e-01-9.00000e-01 0.00000e+00
 1.20000e+00-9.00000e-01 0.00000e+00
 1.60000e+00-9.00000e-01 0.00000e+00
 2.00000e+00-9.00000e-01 0.00000e+00
 2.40000e+00-9.00000e-01 0.00000e+00
 2.80000e+00-9.00000e-01 0.00000e+00
 3.20000e+00-9.00000e-01 0.00000e+00
 3.60000e+00-9.00000e-01 0.00000e+00
 4.00000e+00-9.00000e-01 0.00000e+00
 4.40000e+00-9.00000e-01 0.00000e+00
 4.80000e+00-9.00000e-01 0.00000e+00
 5.20000e+00-9.00000e-01 0.00000e+00
 5.60000e+00-9.00000e-01 0.00000e+00
 6.00000e+00-9.00000e-01 0.00000e+00
 6.40000e+00-9.00000e-01 0.00000e+00
 6.80000e+00-9.00000e-01 0.00000e+00
 7.20000e+00-9.00000e-01 0.00000e+00
 7.60000e+00-9.00000e-01 0.00000e+00
 8.00000e+00-9.00000e-01 0.00000e+00
 8.40000e+00-9.00000e-01 0.00000e+00
 8.80000e+00-9.00000e-01 0.00000e+00
 9.20000e+00-9.00000e-01 0.00000e+00
 9.60000e+00-9.00000e-01 0.00000e+00
 1.00000e+01-9.00000e-01 0.00000e+00
 1.04000e+01-9.00000e-01 0.00000e+00
 1.08000e+01-9.00000e-01 0.00000e+00
 1.12000e+01-9.00000e-01 0.00000e+00
 1.16000e+01-9.00000e-01 0.00000e+00
 1.20000e+01-9.00000e-01 0.00000e+00
 1.24000e+01-9.00000e-01 0.00000e+00
 1.28000e+01-9.00000e-01 0.00000e+00
 1.32000e+01-9.00000e-01 0.00000e+00
 1.36000e+01-9.00000e-01 0.00000e+00
 1.40000e+01-9.00000e-01 0.00000e+00
 1.44000e+01-9.00000e-01 0.00000e+00
 1.48000e+01-9.00000e-01 0.00000e+00
 1.52000e+01-9.00000e-01 0.00000e+00
 1.56000e+01-9.00000e-01 0.00000e+00
 1.60000e+01-9.00000e-01 0.00000e+00
 1.64000e+01-9.00000e-01 0.00000e+00
 1.68000e+01-9.00000e-01 0.00000e+00
 1.72000e+01-9.00000e-01 0.00000e+00
 1.76000e+01-9.00000e-01 0.00000e+00
 1.80000e+01-9.00000e-01 0.00000e+00
 1.84000e+01-9.00000e-01 0.00000e+00
 1.88000e+01-9.00000e-01 0.00000e+00
 1.92000e+01-9.00000e-01 0.00000e+00
 1.96000e+01-9.00000e-01 0.00000e+00
 2.00000e+01-9.00000e-01 0.00000e+00
 0.00000e+00-8.00000e-01 0.00000e+00
 4.00000e-01-8.00000e-01 0.00000e+00
 8.00000e-01-8.00000e-01 0.00000e+00
 1.20000e+00-8.00000e-01 0.00000e+00
 1.60000e+00-8.00000e-01 0.00000e+00
 2.00000e+00-8.00000e-01 0.00000e+00
 2.40000e+00-8.00000e-01 0.00000e+00
 2.80000e+00-8.00000e-01 0.00000e+00
 3.20000e+00-8.00000e-01 0.00000e+00
 3.60000e+00-8.00000e-01 0.00000e+00
 4.00000e+00-8.00000e-01 0.00000e+00
 4.40000e+00-8.00000e-01 0.00000e+00
 4.80000e+00-8.00000e-01 0.00000e+00
 5.20000e+00-8.00000e-01 0.00000e+00
 5.60000e+00-8.00000e-01 0.00000e+00
 6.00000e+00-8.00000e-01 0.00000e+00
 6.40000e+00-8.00000e-01 0.00000e+00
 6.80000e+00-8.00000e-01 0.00000e+00
 7.20000e+00-8.00000e-01 0.00000e+00
 7.60000e+00-8.00000e-01 0.00000e+00
 8.00000e+00-8.00000e-01 0.00000e+00
 8.40000e+00-8.00000e-01 0.00000e+00
 8.80000e+00-8.00000e-01 0.00000e+00
 9.20000e+00-8.00000e-01 0.00000e+00
 9.60000e+00-8.00000e-01 0.00000e+00
 1.00000e+01-8.00000e-01 0.00000e+00
 1.04000e+01-8.00000e-01 0.00000e+00
 1.08000e+01-8.00000e-01 0.00000e+00
 1.12000e+01-8.00000e-01 0.00000e+00
 1.16000e+01-8.00000e-01 0.00000e+00
 1.20000e+01-8.00000e-01 0.00000e+00
 1.24000e+01-8.00000e-01 0.00000e+00
 1.28000e+01-8.00000e-01 0.00000e+00
 1.32000e+01-8.00000e-01 0.00000e+00
 1.36000e+01-8.00000e-01 0.00000e+00
 1.40000e+01-8.00000e-01 0.00000e+00
 1.44000e+01-8.00000e-01 0.00000e+00
 1.48000e+01-8.00000e-01 0.00000e+00
 1.52000e+01-8.00000e-01 0.00000e+00
 1.56000e+01-8.00000e-01 0.00000e+00
 1.60000e+01-8.00000e-01 0.00000e+00
 1.64000e+01-8.00000e-01 0.00000e+00
 1.68000e+01-8.00000e-01 0.00000e+00
 1.72000e+01-8.00000e-01 0.00000e+00
 1.76000e+01-8.00000e-01 0.00000e+00
 1.80000e+01-8.00000e-01 0.00000e+00
 1.84000e+01-8.00000e-01 0.00000e+00
 1.88000e+01-8.00000e-01 0.00000e+00
 1.92000e+01-8.00000e-01 0.00000e+00
 1.96000e+01-8.00000e-01 0.00000e+00
 2.00000e+01-8.00000e-01 0.00000e+00
 0.00000e+00-7.00000e-01 0.00000e+00
 4.00000e-01-7.00000e-01 0.00000e+00
 8.00000e-01-7.00000e-01 0.00000e+00
 1.20000e+00-7.00000e-01 0.00000e+00
 1.60000e+00-7.00000e-01 0.00000e+00
 2.00000e+00-7.00000e-01 0.00000e+00
 2.40000e+00-7.00000e-01 0.00000e+00
 2.80000e+00-7.00000e-01 0.00000e+00
 3.20000e+00-7.00000e-01 0.00000e+00
 3.60000e+00-7.00000e-01 0.00000e+00
 4.00000e+00-7.00000e-01 0.00000e+00
 4.40000e+00-7.00000e-01 0.00000e+00
 4.80000e+00-7.00000e-01 0.00000e+00
 5.20000e+00-7.00000e-01 0.00000e+00
 5.60000e+00-7.00000e-01 0.00000e+00
 6.00000e+00-7.00000e-01 0.00000e+00
 6.40000e+00-7.00000e-01 0.00000e+00
 6.80000e+00-7.00000e-01 0.00000e+00
 7.20000e+00-7.00000e-01 0.00000e+00
 7.60000e+00-7.00000e-01 0.00000e+00
 8.00000e+00-7.00000e-01 0.00000e+00
 8.40000e+00-7.00000e-01 0.00000e+00
 8.80000e+00-7.00000e-01 0.00000e+00
 9.20000e+00-7.00000e-01 0.00000e+00
 9.60000e+00-7.00000e-01 0.00000e+00
 1.00000e+01-7.00000e-01 0.00000e+00
 1.04000e+01-7.00000e-01 0.00000e+00
 1.08000e+01-7.00000e-01 0.00000e+00
 1.12000e+01-7.00000e-01 0.00000e+00
 1.16000e+01-7.00000e-01 0.00000e+00
 1.20000e+01-7.00000e-01 0.00000e+00
 1.24000e+01-7.00000e-01 0.00000e+00
 1.28000e+01-7.00000e-01 0.00000e+00
 1.32000e+01-7.00000e-01 0.00000e+00
 1.36000e+01-7.00000e-01 0.00000e+00
 1.40000e+01-7.00000e-01 0.00000e+00
 1.44000e+01-7.00000e-01 0.00000e+00
 1.48000e+01-7.00000e-01 0.00000e+00
 1.52000e+01-7.00000e-01 0.00000e+00
 1.56000e+01-7.00000e-01 0.00000e+00
 1.60000e+01-7.00000e-01 0.00000e+00
 1.64000e+01-7.00000e-01 0.00000e+00
 1.68000e+01-7.00000e-01 0.00000e+00
 1.72000e+01-7.00000e-01 0.00000e+00
 1.76000e+01-7.00000e-01 0.00000e+00
 1.80000e+01-7.00000e-01 0.00000e+00
 1.84000e+01-7.00000e-01 0.00000e+00
 1.88000e+01-7.00000e-01 0.00000e+00
 1.92000e+01-7.00000e-01 0.00000e+00
 1.96000e+01-7.00000e-01 0.00000e+00
 2.00000e+01-7.00000e-01 0.00000e+00
 0.00000e+00-6.00000e-01 0.00000e+00
 4.00000e-01-6.00000e-01 0.00000e+00
 8.00000e-01-6.00000e-01 0.00000e+00
 1.20000e+00-6.00000e-01 0.00000e+00
 1.60000e+00-6.00000e-01 0.00000e+00
 2.00000e+00-6.00000e-01 0.00000e+00
 2.40000e+00-6.00000e-01 0.00000e+00
 2.80000e+00-6.00000e-01 0.00000e+00
 3.20000e+00-6.00000e-01 0.00000e+00
 3.60000e+00-6.00000e-01 0.00000e+00
 4.00000e+00-6.00000e-01 0.00000e+00
 4.40000e+00-6.00000e-01 0.00000e+00
 4.80000e+00-6.00000e-01 0.00000e+00
 5.20000e+00-6.00000e-01 0.00000e+00
 5.60000e+00-6.00000e-01 0.00000e+00
 6.00000e+00-6.00000e-01 0.00000e+00
 6.40000e+00-6.00000e-01 0.00000e+00
 6.80000e+00-6.00000e-01 0.00000e+00
 7.20000e+00-6.00000e-01 0.00000e+00
 7.60000e+00-6.00000e-01 0.00000e+00
 8.00000e+00-6.00000e-01 0.00000e+00
 8.40000e+00-6.00000e-01 0.00000e+00
 8.80000e+00-6.00000e-01 0.00000e+00
 9.20000e+00-6.00000e-01 0.00000e+00
 9.60000e+00-6.00000e-01 0.00000e+00
 1.00000e+01-6.00000e-01 0.00000e+00
 1.04000e+01-6.00000e-01 0.00000e+00
 1.08000e+01-6.00000e-01 0.00000e+00
 1.12000e+01-6.00000e-01 0.00000e+00
 1.16000e+01-6.00000e-01 0.00000e+00
 1.20000e+01-6.00000e-01 0.00000e+00
 1.24000e+01-6.00000e-01 0.00000e+00
 1.28000e+01-6.00000e-01 0.00000e+00
 1.32000e+01-6.00000e-01 0.00000e+00
 1.36000e+01-6.00000e-01 0.00000e+00
 1.40000e+01-6.00000e-01 0.00000e+00
 1.44000e+01-6.00000e-01 0.00000e+00
 1.48000e+01-6.00000e-01 0.00000e+00
 1.52000e+01-6.00000e-01 0.00000e+00
 1.56000e+01-6.00000e-01 0.00000e+00
 1.60000e+01-6.00000e-01 0.00000e+00
 1.64000e+01-6.00000e-01 0.00000e+00
 1.68000e+01-6.00000e-01 0.00000e+00
 1.72000e+01-6.00000e-01 0.00000e+00
 1.76000e+01-6.00000e-01 0.00000e+00
 1.80000e+01-6.00000e-01 0.00000e+00
 1.84000e+01-6.00000e-01 0.00000e+00
 1.88000e+01-6.00000e-01 0.00000e+00
 1.92000e+01-6.00000e-01 0.00000e+00
 1.96000e+01-6.00000e-01 0.00000e+00
 2.00000e+01-6.00000e-01 0.00000e+00
 0.00000e+00-5.00000e-01 0.00000e+00
 4.00000e-01-5.00000e-01 0.00000e+00
 8.00000e-01-5.00000e-01 0.00000e+00
 1.20000e+00-5.00000e-01 0.00000e+00
 1.60000e+00-5.00000e-01 0.00000e+00
 2.00000e+00-5.00000e-01 0.00000e+00
 2.40000e+00-5.00000e-01 0.00000e+00
 2.80000e+00-5.00000e-01 0.00000e+00
 3.20000e+00-5.00000e-01 0.00000e+00
 3.60000e+00-5.00000e-01 0.00000e+00
 4.00000e+00-5.00000e-01 0.00000e+00
 4.40000e+00-5.00000e-01 0.00000e+00
 4.80000e+00-5.00000e-01 0.00000e+00
 5.20000e+00-5.00000e-01 0.00000e+00
 5.60000e+00-5.00000e-01 0.00000e+00
 6.00000e+00-5.00000e-01 0.00000e+00
 6.40000e+00-5.00000e-01 0.00000e+00
 6.80000e+00-5.00000e-01 0.00000e+00
 7.20000e+00-5.00000e-01 0.00000e+00
 7.60000e+00-5.00000e-01 0.00000e+00
 8.00000e+00-5.00000e-01 0.00000e+00
 8.40000e+00-5.00000e-01 0.00000e+00
 8.80000e+00-5.00000e-01 0.00000e+00
 9.20000e+00-5.00000e-01 0.00000e+00
 9.60000e+00-5.00000e-01 0.00000e+00
 1.00000e+01-5.00000e-01 0.00000e+00
 1.04000e+01-5.00000e-01 0.00000e+00
 1.08000e+01-5.00000e-01 0.00000e+00
 1.12000e+01-5.00000e-01 0.00000e+00
 1.16000e+01-5.00000e-01 0.00000e+00
 1.20000e+01-5.00000e-01 0.00000e+00
 1.24000e+01-5.00000e-01 0.00000e+00
 1.28000e+01-5.00000e-01 0.00000e+00
 1.32000e+01-5.00000e-01 0.00000e+00
 1.36000e+01-5.00000e-01 0.00000e+00
 1.40000e+01-5.00000e-01 0.00000e+00
 1.44000e+01-5.00000e-01 0.00000e+00
 1.48000e+01-5.00000e-01 0.00000e+00
 1.52000e+01-5.00000e-01 0.00000e+00
 1.56000e+01-5.00000e-01 0.00000e+00
 1.60000e+01-5.00000e-01 0.00000e+00
 1.64000e+01-5.00000e-01 0.00000e+00
 1.68000e+01-5.00000e-01 0.00000e+00
 1.72000e+01-5.00000e-01 0.00000e+00
 1.76000e+01-5.00000e-01 0.00000e+00
 1.80000e+01-5.00000e-01 0.00000e+00
 1.84000e+01-5.00000e-01 0.00000e+00
 1.88000e+01-5.00000e-01 0.00000e+00
 1.92000e+01-5.00000e-01 0.00000e+00
 1.96000e+01-5.00000e-01 0.00000e+00
 2.00000e+01-5.00000e-01 0.00000e+00
 0.00000e+00-4.00000e-01 0.00000e+00
 4.00000e-01-4.00000e-01 0.00000e+00
 8.00000e-01-4.00000e-01 0.00000e+00
 1.20000e+00-4.00000e-01 0.00000e+00
 1.60000e+00-4.00000e-01 0.00000e+00
 2.00000e+00-4.00000e-01 0.00000e+00
 2.40000e+00-4.00000e-01 0.00000e+00
 2.80000e+00-4.00000e-01 0.00000e+00
 3.20000e+00-4.00000e-01 0.00000e+00
 3.60000e+00-4.00000e-01 0.00000e+00
 4.00000e+00-4.00000e-01 0.00000e+00
 4.40000e+00-4.00000e-01 0.00000e+00
 4.80000e+00-4.00000e-01 0.00000e+00
 5.20000e+00-4.00000e-01 0.00000e+00
 5.60000e+00-4.00000e-01 0.00000e+00
 6.00000e+00-4.00000e-01 0.00000e+00
 6.40000e+00-4.00000e-01 0.00000e+00
 6.80000e+00-4.00000e-01 0.00000e+00
 7.20000e+00-4.00000e-01 0.00000e+00
 7.60000e+00-4.00000e-01 0.00000e+00
 8.00000e+00-4.00000e-01 0.00000e+00
 8.40000e+00-4.00000e-01 0.00000e+00
 8.80000e+00-4.00000e-01 0.00000e+00
 9.20000e+00-4.00000e-01 0.00000e+00
 9.60000e+00-4.00000e-01 0.00000e+00
 1.00000e+01-4.00000e-01 0.00000e+00
 1.04000e+01-4.00000e-01 0.00000e+00
 1.08000e+01-4.00000e-01 0.00000e+00
 1.12000e+01-4.00000e-01 0.00000e+00
 1.16000e+01-4.00000e-01 0.00000e+00
 1.20000e+01-4.00000e-01 0.00000e+00
 1.24000e+01-4.00000e-01 0.00000e+00
 1.28000e+01-4.00000e-01 0.00000e+00
 1.32000e+01-4.00000e-01 0.00000e+00
 1.36000e+01-4.00000e-01 0.00000e+00
 1.40000e+01-4.00000e-01 0.00000e+00
 1.44000e+01-4.00000e-01 0.00000e+00
 1.48000e+01-4.00000e-01 0.00000e+00
 1.52000e+01-4.00000e-01 0.00000e+00
 1.56000e+01-4.00000e-01 0.00000e+00
 1.60000e+01-4.00000e-01 0.00000e+00
 1.64000e+01-4.00000e-01 0.00000e+00
 1.68000e+01-4.00000e-01 0.00000e+00
 1.72000e+01-4.00000e-01 0.00000e+00
 1.76000e+01-4.00000e-01 0.00000e+00
 1.80000e+01-4.00000e-01 0.00000e+00
 1.84000e+01-4.00000e-01 0.00000e+00
 1.88000e+01-4.00000e-01 0.00000e+00
 1.92000e+01-4.00000e-01 0.00000e+00
 1.96000e+01-4.00000e-01 0.00000e+00
 2.00000e+01-4.00000e-01 0.00000e+00
 0.00000e+00-3.00000e-01 0.00000e+00
 4.00000e-01-3.00000e-01 0.00000e+00
 8.00000e-01-3.00000e-01 0.00000e+00
 1.20000e+00-3.00000e-01 0.00000e+00
 1.60000e+00-3.00000e-01 0.00000e+00
 2.00000e+00-3.00000e-01 0.00000e+00
 2.40000e+00-3.00000e-01 0.00000e+00
 2.80000e+00-3.00000e-01 0.00000e+00
 3.20000e+00-3.00000e-01 0.00000e+00
 3.60000e+00-3.00000e-01 0.00000e+00
 4.00000e+00-3.00000e-01 0.00000e+00
 4.40000e+00-3.00000e-01 0.00000e+00
 4.80000e+00-3.00000e-01 0.00000e+00
 5.20000e+00-3.00000e-01 0.00000e+00
 5.60000e+00-3.00000e-01 0.00000e+00
 6.00000e+00-3.00000e-01 0.00000e+00
 6.40000e+00-3.00000e-01 0.00000e+00
 6.80000e+00-3.00000e-01 0.00000e+00
 7.20000e+00-3.00000e-01 0.00000e+00
 7.60000e+00-3.00000e-01 0.00000e+00
 8.00000e+00-3.00000e-01 0.00000e+00
 8.40000e+00-3.00000e-01 0.00000e+00
 8.80000e+00-3.00000e-01 0.00000e+00
 9.20000e+00-3.00000e-01 0.00000e+00
 9.60000e+00-3.00000e-01 0.00000e+00
 1.00000e+01-3.00000e-01 0.00000e+00
 1.04000e+01-3.00000e-01 0.00000e+00
 1.08000e+01-3.00000e-01 0.00000e+00
 1.12000e+01-3.00000e-01 0.00000e+00
 1.16000e+01-3.00000e-01 0.00000e+00
 1.20000e+01-3.00000e-01 0.00000e+00
 1.24000e+01-3.00000e-01 0.00000e+00
 1.28000e+01-3.00000e-01 0.00000e+00
 1.32000e+01-3.00000e-01 0.00000e+00
 1.36000e+01-3.00000e-01 0.00000e+00
 1.40000e+01-3.00000e-01 0.00000e+00
 1.44000e+01-3.00000e-01 0.00000e+00
 1.48000e+01-3.00000e-01 0.00000e+00
 1.52000e+01-3.00000e-01 0.00000e+00
 1.56000e+01-3.00000e-01 0.00000e+00
 1.60000e+01-3.00000e-01 0.00000e+00
 1.64000e+01-3.00000e-01 0.00000e+00
 1.68000e+01-3.00000e-01 0.00000e+00
 1.72000e+01-3.00000e-01 0.00000e+00
 1.76000e+01-3.00000e-01 0.00000e+00
 1.80000e+01-3.00000e-01 0.00000e+00
 1.84000e+01-3.00000e-01 0.00000e+00
 1.88000e+01-3.00000e-01 0.00000e+00
 1.92000e+01-3.00000e-01 0.00000e+00
 1.96000e+01-3.00000e-01 0.00000e+00
 2.00000e+01-3.00000e-01 0.00000e+00
 0.00000e+00-2.00000e-01 0.00000e+00
 4.00000e-01-2.00000e-01 0.00000e+00
 8.00000e-01-2.00000e-01 0.00000e+00
 1.20000e+00-2.00000e-01 0.00000e+00
 1.60000e+00-2.00000e-01 0.00000e+00
 2.00000e+00-2.00000e-01 0.00000e+00
 2.40000e+00-2.00000e-01 0.00000e+00
 2.80000e+00-2.00000e-01 0.00000e+00
 3.20000e+00-2.00000e-01 0.00000e+00
 3.60000e+00-2.00000e-01 0.00000e+00
 4.00000e+00-2.00000e-01 0.00000e+00
 4.40000e+00-2.00000e-01 0.00000e+00
 4.80000e+00-2.00000e-01 0.00000e+00
 5.20000e+00-2.00000e-01 0.00000e+00
 5.60000e+00-2.00000e-01 0.00000e+00
 6.00000e+00-2.00000e-01 0.00000e+00
 6.40000e+00-2.00000e-01 0.00000e+00
 6.80000e+00-2.00000e-01 0.00000e+00
 7.20000e+00-2.00000e-01 0.00000e+00
 7.60000e+00-2.00000e-01 0.00000e+00
 8.00000e+00-2.00000e-01 0.00000e+00
 8.40000e+00-2.00000e-01 0.00000e+00
 8.80000e+00-2.00000e-01 0.00000e+00
 9.20000e+00-2.00000e-01 0.00000e+00
 9.60000e+00-2.00000e-01 0.00000e+00
 1.00000e+01-2.00000e-01 0.00000e+00
 1.04000e+01-2.00000e-01 0.00000e+00
 1.08000e+01-2.00000e-01 0.00000e+00
 1.12000e+01-2.00000e-01 0.00000e+00
 1.16000e+01-2.00000e-01 0.00000e+00
 1.20000e+01-2.00000e-01 0.00000e+00
 1.24000e+01-2.00000e-01 0.00000e+00
 1.28000e+01-2.00000e-01 0.00000e+00
 1.32000e+01-2.00000e-01 0.00000e+00
 1.36000e+01-2.00000e-01 0.00000e+00
 1.40000e+01-2.00000e-01 0.00000e+00
 1.44000e+01-2.00000e-01 0.00000e+00
 1.48000e+01-2.00000e-01 0.00000e+00
 1.52000e+01-2.00000e-01 0.00000e+00
 1.56000e+01-2.00000e-01 0.00000e+00
 1.60000e+01-2.00000e-01 0.00000e+00
 1.64000e+01-2.00000e-01 0.00000e+00
 1.68000e+01-2.00000e-01 0.00000e+00
 1.72000e+01-2.00000e-01 0.00000e+00
 1.76000e+01-2.00000e-01 0.00000e+00
 1.80000e+01-2.00000e-01 0.00000e+00
 1.84000e+01-2.00000e-01 0.00000e+00
 1.88000e+01-2.00000e-01 0.00000e+00
 1.92000e+01-2.00000e-01 0.00000e+00
 1.96000e+01-2.00000e-01 0.00000e+00
 2.00000e+01-2.00000e-01 0.00000e+00
 0.00000e+00-1.00000e-01 0.00000e+00
 4.00000e-01-1.00000e-01 0.00000e+00
 8.00000e-01-1.00000e-01 0.00000e+00
 1.20000e+00-1.00000e-01 0.00000e+00
 1.60000e+00-1.00000e-01 0.00000e+00
 2.00000e+00-1.00000e-01 0.00000e+00
 2.40000e+00-1.00000e-01 0.00000e+00
 2.80000e+00-1.00000e-01 0.00000e+00
 3.20000e+00-1.00000e-01 0.00000e+00
 3.60000e+00-1.00000e-01 0.00000e+00
 4.00000e+00-1.00000e-01 0.00000e+00
 4.40000e+00-1.00000e-01 0.00000e+00
 4.80000e+00-1.00000e-01 0.00000e+00
 5.20000e+00-1.00000e-01 0.00000e+00
 5.60000e+00-1.00000e-01 0.00000e+00
 6.00000e+00-1.00000e-01 0.00000e+00
 6.40000e+00-1.00000e-01 0.00000e+00
 6.80000e+00-1.00000e-01 0.00000e+00
 7.20000e+00-1.00000e-01 0.00000e+00
 7.60000e+00-1.00000e-01 0.00000e+00
 8.00000e+00-1.00000e-01 0.00000e+00
 8.40000e+00-1.00000e-01 0.00000e+00
 8.80000e+00-1.00000e-01 0.00000e+00
 9.20000e+00-1.00000e-01 0.00000e+00
 9.60000e+00-1.00000e-01 0.00000e+00
 1.00000e+01-1.00000e-01 0.00000e+00
 1.04000e+01-1.00000e-01 0.00000e+00
 1.08000e+01-1.00000e-01 0.00000e+00
 1.12000e+01-1.00000e-01 0.00000e+00
 1.16000e+01-1.00000e-01 0.00000e+00
 1.20000e+01-1.00000e-01 0.00000e+00
 1.24000e+01-1.00000e-01 0.00000e+00
 1.28000e+01-1.00000e-01 0.00000e+00
 1.32000e+01-1.00000e-01 0.00000e+00
 1.36000e+01-1.00000e-01 0.00000e+00
 1.40000e+01-1.00000e-01 0.00000e+00
 1.44000e+01-1.00000e-01 0.00000e+00
 1.48000e+01-1.00000e-01 0.00000e+00
 1.52000e+01-1.00000e-01 0.00000e+00
 1.56000e+01-1.00000e-01 0.00000e+00
 1.60000e+01-1.00000e-01 0.00000e+00
 1.64000e+01-1.00000e-01 0.00000e+00
 1.68000e+01-1.00000e-01 0.00000e+00
 1.72000e+01-1.00000e-01 0.00000e+00
 1.76000e+01-1.00000e-01 0.00000e+00
 1.80000e+01-1.00000e-01 0.00000e+00
 1.84000e+01-1.00000e-01 0.00000e+00
 1.88000e+01-1.00000e-01 0.00000e+00
 1.92000e+01-1.00000e-01 0.00000e+00
 1.96000e+01-1.00000e-01 0.00000e+00
 2.00000e+01-1.00000e-01 0.00000e+00
 0.00000e+00 0.00000e+00 0.00000e+00
 4.00000e-01 0.00000e+00 0.00000e+00
 8.00000e-01 0.00000e+00 0.00000e+00
 1.20000e+00 0.00000e+00 0.00000e+00
 1.60000e+00 0.00000e+00 0.00000e+00
 2.00000e+00 0.00000e+00 0.00000e+00
 2.40000e+00 0.00000e+00 0.00000e+00
 2.80000e+00 0.00000e+00 0.00000e+00
 3.20000e+00 0.00000e+00 0.00000e+00
 3.60000e+00 0.00000e+00 0.00000e+00
 4.00000e+00 0.00000e+00 0.00000e+00
 4.40000e+00 0.00000e+00 0.00000e+00
 4.80000e+00 0.00000e+00 0.00000e+00
 5.20000e+00 0.00000e+00 0.00000e+00
 5.60000e+00 0.00000e+00 0.00000e+00
 6.00000e+00 0.00000e+00 0.00000e+00
 6.40000e+00 0.00000e+00 0.00000e+00
 6.80000e+00 0.00000e+00 0.00000e+00
 7.20000e+00 0.00000e+00 0.00000e+00
 7.60000e+00 0.00000e+00 0.00000e+00
 8.00000e+00 0.00000e+00 0.00000e+00
 8.40000e+00 0.00000e+00 0.00000e+00
 8.80000e+00 0.00000e+00 0.00000e+00
 9.20000e+00 0.00000e+00 0.00000e+00
 9.60000e+00 0.00000e+00 0.00000e+00
 1.00000e+01 0.00000e+00 0.00000e+00
 1.04000e+01 0.00000e+00 0.00000e+00
 1.08000e+01 0.00000e+00 0.00000e+00
 1.12000e+01 0.00000e+00 0.00000e+00
 1.16000e+01 0.00000e+00 0.00000e+00
 1.20000e+01 0.00000e+00 0.00000e+00
 1.24000e+01 0.00000e+00 0.00000e+00
 1.28000e+01 0.00000e+00 0.00000e+00
 1.32000e+01 0.00000e+00 0.00000e+00
 1.36000e+01 0.00000e+00 0.00000e+00
 1.40000e+01 0.00000e+00 0.00000e+00
 1.44000e+01 0.00000e+00 0.00000e+00
 1.48000e+01 0.00000e+00 0.00000e+00
 1.52000e+01 0.00000e+00 0.00000e+00
 1.56000e+01 0.00000e+00 0.00000e+00
 1.60000e+01 0.00000e+00 0.00000e+00
 1.64000e+01 0.00000e+00 0.00000e+00
 1.68000e+01 0.00000e+00 0.00000e+00
 1.72000e+01 0.00000e+00 0.00000e+00
 1.76000e+01 0.00000e+00 0.00000e+00
 1.80000e+01 0.00000e+00 0.00000e+00
 1.84000e+01 0.00000e+00 0.00000e+00
 1.88000e+01 0.00000e+00 0.00000e+00
 1.92000e+01 0.00000e+00 0.00000e+00
 1.96000e+01 0.00000e+00 0.00000e+00
 2.00000e+01 0.00000e+00 0.00000e+00
 0.00000e+00 1.00000e-01 0.00000e+00
 4.00000e-01 1.00000e-01 0.00000e+00
 8.00000e-01 1.00000e-01 0.00000e+00
 1.20000e+00 1.00000e-01 0.00000e+00
 1.60000e+00 1.00000e-01 0.00000e+00
 2.00000e+00 1.00000e-01 0.00000e+00
 2.40000e+00 1.00000e-01 0.00000e+00
 2.80000e+00 1.00000e-01 0.00000e+00
 3.20000e+00 1.00000e-01 0.00000e+00
 3.60000e+00 1.00000e-01 0.00000e+00
 4.00000e+00 1.00000e-01 0.00000e+00
 4.40000e+00 1.00000e-01 0.00000e+00
 4.80000e+00 1.00000e-01 0.00000e+00
 5.20000e+00 1.00000e-01 0.00000e+00
 5.60000e+00 1.00000e-01 0.00000e+00
 6.00000e+00 1.00000e-01 0.00000e+00
 6.40000e+00 1.00000e-01 0.00000e+00
 6.80000e+00 1.00000e-01 0.00000e+00
 7.20000e+00 1.00000e-01 0.00000e+00
 7.60000e+00 1.00000e-01 0.00000e+00
 8.00000e+00 1.00000e-01 0.00000e+00
 8.40000e+00 1.00000e-01 0.00000e+00
 8.80000e+00 1.00000e-01 0.00000e+00
 9.20000e+00 1.00000e-01 0.00000e+00
 9.60000e+00 1.00000e-01 0.00000e+00
 1.00000e+01 1.00000e-01 0.00000e+00
 1.04000e+01 1.00000e-01 0.00000e+00
 1.08000e+01 1.00000e-01 0.00000e+00
 1.12000e+01 1.00000e-01 0.00000e+00
 1.16000e+01 1.00000e-01 0.00000e+00
 1.20000e+01 1.00000e-01 0.00000e+00
 1.24000e+01 1.00000e-01 0.00000e+00
 1.28000e+01 1.00000e-01 0.00000e+00
 1.32000e+01 1.00000e-01 0.00000e+00
 1.36000e+01 1.00000e-01 0.00000e+00
 1.40000e+01 1.00000e-01 0.00000e+00
 1.44000e+01 1.00000e-01 0.00000e+00
 1.48000e+01 1.00000e-01 0.00000e+00
 1.52000e+01 1.00000e-01 0.00000e+00
 1.56000e+01 1.00000e-01 0.00000e+00
 1.60000e+01 1.00000e-01 0.00000e+00
 1.64000e+01 1.00000e-01 0.00000e+00
 1.68000e+01 1.00000e-01 0.00000e+00
 1.72000e+01 1.00000e-01 0.00000e+00
 1.76000e+01 1.00000e-01 0.00000e+00
 1.80000e+01 1.00000e-01 0.00000e+00
 1.84000e+01 1.00000e-01 0.00000e+00
 1.88000e+01 1.00000e-01 0.00000e+00
 1.92000e+01 1.00000e-01 0.00000e+00
 1.96000e+01 1.00000e-01 0.00000e+00
 2.00000e+01 1.00000e-01 0.00000e+00
 0.00000e+00 2.00000e-01 0.00000e+00
 4.00000e-01 2.00000e-01 0.00000e+00
 8.00000e-01 2.00000e-01 0.00000e+00
 1.20000e+00 2.00000e-01 0.00000e+00
 1.60000e+00 2.00000e-01 0.00000e+00
 2.00000e+00 2.00000e-01 0.00000e+00
 2.40000e+00 2.00000e-01 0.00000e+00
 2.80000e+00 2.00000e-01 0.00000e+00
 3.20000e+00 2.00000e-01 0.00000e+00
 3.60000e+00 2.00000e-01 0.00000e+00
 4.00000e+00 2.00000e-01 0.00000e+00
 4.40000e+00 2.00000e-01 0.00000e+00
 4.80000e+00 2.00000e-01 0.00000e+00
 5.20000e+00 2.00000e-01 0.00000e+00
 5.60000e+00 2.00000e-01 0.00000e+00
 6.00000e+00 2.00000e-01 0.00000e+00
 6.40000e+00 2.00000e-01 0.00000e+00
 6.80000e+00 2.00000e-01 0.00000e+00
 7.20000e+00 2.00000e-01 0.00000e+00
 7.60000e+00 2.00000e-01 0.00000e+00
 8.00000e+00 2.00000e-01 0.00000e+00
 8.40000e+00 2.00000e-01 0.00000e+00
 8.80000e+00 2.00000e-01 0.00000e+00
 9.20000e+00 2.00000e-01 0.00000e+00
 9.60000e+00 2.00000e-01 0.00000e+00
 1.00000e+01 2.00000e-01 0.00000e+00
 1.04000e+01 2.00000e-01 0.00000e+00
 1.08000e+01 2.00000e-01 0.00000e+00
 1.12000e+01 2.00000e-01 0.00000e+00
 1.16000e+01 2.00000e-01 0.00000e+00
 1.20000e+01 2.00000e-01 0.00000e+00
 1.24000e+01 2.00000e-01 0.00000e+00
 1.28000e+01 2.00000e-01 0.00000e+00
 1.32000e+01 2.00000e-01 0.00000e+00
 1.36000e+01 2.00000e-01 0.00000e+00
 1.40000e+01 2.00000e-01 0.00000e+00
 1.44000e+01 2.00000e-01 0.00000e+00
 1.48000e+01 2.00000e-01 0.00000e+00
 1.52000e+01 2.00000e-01 0.00000e+00
 1.56000e+01 2.00000e-01 0.00000e+00
 1.60000e+01 2.00000e-01 0.00000e+00
 1.64000e+01 2.00000e-01 0.00000e+00
 1.68000e+01 2.00000e-01 0.00000e+00
 1.72000e+01 2.00000e-01 0.00000e+00
 1.76000e+01 2.00000e-01 0.00000e+00
 1.80000e+01 2.00000e-01 0.00000e+00
 1.84000e+01 2.00000e-01 0.00000e+00
 1.88000e+01 2.00000e-01 0.00000e+00
 1.92000e+01 2.00000e-01 0.00000e+00
 1.96000e+01 2.00000e-01 0.00000e+00
 2.00000e+01 2.00000e-01 0.00000e+00
 0.00000e+00 3.00000e-01 0.00000e+00
 4.00000e-01 3.00000e-01 0.00000e+00
 8.00000e-01 3.00000e-01 0.00000e+00
 1.20000e+00 3.00000e-01 0.00000e+00
 1.60000e+00 3.00000e-01 0.00000e+00
 2.00000e+00 3.00000e-01 0.00000e+00
 2.40000e+00 3.00000e-01 0.00000e+00
 2.80000e+00 3.00000e-01 0.00000e+00
 3.20000e+00 3.00000e-01 0.00000e+00
 3.60000e+00 3.00000e-01 0.00000e+00
 4.00000e+00 3.00000e-01 0.00000e+00
 4.40000e+00 3.00000e-01 0.00000e+00
 4.80000e+00 3.00000e-01 0.00000e+00
 5.20000e+00 3.00000e-01 0.00000e+00
 5.60000e+00 3.00000e-01 0.00000e+00
 6.00000e+00 3.00000e-01 0.00000e+00
 6.40000e+00 3.00000e-01 0.00000e+00
 6.80000e+00 3.00000e-01 0.00000e+00
 7.20000e+00 3.00000e-01 0.00000e+00
 7.60000e+00 3.00000e-01 0.00000e+00
 8.00000e+00 3.00000e-01 0.00000e+00
 8.40000e+00 3.00000e-01 0.00000e+00
 8.80000e+00 3.00000e-01 0.00000e+00
 9.20000e+00 3.00000e-01 0.00000e+00
 9.60000e+00 3.00000e-01 0.00000e+00
 1.00000e+01 3.00000e-01 0.00000e+00
 1.04000e+01 3.00000e-01 0.00000e+00
 1.08000e+01 3.00000e-01 0.00000e+00
 1.12000e+01 3.00000e-01 0.00000e+00
 1.16000e+01 3.00000e-01 0.00000e+00
 1.20000e+01 3.00000e-01 0.00000e+00
 1.24000e+01 3.00000e-01 0.00000e+00
 1.28000e+01 3.00000e-01 0.00000e+00
 1.32000e+01 3.00000e-01 0.00000e+00
 1.36000e+01 3.00000e-01 0.00000e+00
 1.40000e+01 3.00000e-01 0.00000e+00
 1.44000e+01 3.00000e-01 0.00000e+00
 1.48000e+01 3.00000e-01 0.00000e+00
 1.52000e+01 3.00000e-01 0.00000e+00
 1.56000e+01 3.00000e-01 0.00000e+00
 1.60000e+01 3.00000e-01 0.00000e+00
 1.64000e+01 3.00000e-01 0.00000e+00
 1.68000e+01 3.00000e-01 0.00000e+00
 1.72000e+01 3.00000e-01 0.00000e+00
 1.76000e+01 3.00000e-01 0.00000e+00
 1.80000e+01 3.00000e-01 0.00000e+00
 1.84000e+01 3.00000e-01 0.00000e+00
 1.88000e+01 3.00000e-01 0.00000e+00
 1.92000e+01 3.00000e-01 0.00000e+00
 1.96000e+01 3.00000e-01 0.00000e+00
 2.00000e+01 3.00000e-01 0.00000e+00
 0.00000e+00 4.00000e-01 0.00000e+00
 4.00000e-01 4.00000e-01 0.00000e+00
 8.00000e-01 4.00000e-01 0.00000e+00
 1.20000e+00 4.00000e-01 0.00000e+00
 1.60000e+00 4.00000e-01 0.00000e+00
 2.00000e+00 4.00000e-01 0.00000e+00
 2.40000e+00 4.00000e-01 0.00000e+00
 2.80000e+00 4.00000e-01 0.00000e+00
 3.20000e+00 4.00000e-01 0.00000e+00
 3.60000e+00 4.00000e-01 0.00000e+00
 4.00000e+00 4.00000e-01 0.00000e+00
 4.40000e+00 4.00000e-01 0.00000e+00
 4.80000e+00 4.00000e-01 0.00000e+00
 5.20000e+00 4.00000e-01 0.00000e+00
 5.60000e+00 4.00000e-01 0.00000e+00
 6.00000e+00 4.00000e-01 0.00000e+00
 6.40000e+00 4.00000e-01 0.00000e+00
 6.80000e+00 4.00000e-01 0.00000e+00
 7.20000e+00 4.00000e-01 0.00000e+00
 7.60000e+00 4.00000e-01 0.00000e+00
 8.00000e+00 4.00000e-01 0.00000e+00
 8.40000e+00 4.00000e-01 0.00000e+00
 8.80000e+00 4.00000e-01 0.00000e+00
 9.20000e+00 4.00000e-01 0.00000e+00
 9.60000e+00 4.00000e-01 0.00000e+00
 1.00000e+01 4.00000e-01 0.00000e+00
 1.04000e+01 4.00000e-01 0.00000e+00
 1.08000e+01 4.00000e-01 0.00000e+00
 1.12000e+01 4.00000e-01 0.00000e+00
 1.16000e+01 4.00000e-01 0.00000e+00
 1.20000e+01 4.00000e-01 0.00000e+00
 1.24000e+01 4.00000e-01 0.00000e+00
 1.28000e+01 4.00000e-01 0.00000e+00
 1.32000e+01 4.00000e-01 0.00000e+00
 1.36000e+01 4.00000e-01 0.00000e+00
 1.40000e+01 4.00000e-01 0.00000e+00
 1.44000e+01 4.00000e-01 0.00000e+00
 1.48000e+01 4.00000e-01 0.00000e+00
 1.52000e+01 4.00000e-01 0.00000e+00
 1.56000e+01 4.00000e-01 0.00000e+00
 1.60000e+01 4.00000e-01 0.00000e+00
 1.64000e+01 4.00000e-01 0.00000e+00
 1.68000e+01 4.00000e-01 0.00000e+00
 1.72000e+01 4.00000e-01 0.00000e+00
 1.76000e+01 4.00000e-01 0.00000e+00
 1.80000e+01 4.00000e-01 0.00000e+00
 1.84000e+01 4.00000e-01 0.00000e+00
 1.88000e+01 4.00000e-01 0.00000e+00
 1.92000e+01 4.00000e-01 0.00000e+00
 1.96000e+01 4.00000e-01 0.00000e+00
 2.00000e+01 4.00000e-01 0.00000e+00
 0.00000e+00 5.00000e-01 0.00000e+00
 4.00000e-01 5.00000e-01 0.00000e+00
 8.00000e-01 5.00000e-01 0.00000e+00
 1.20000e+00 5.00000e-01 0.00000e+00
 1.60000e+00 5.00000e-01 0.00000e+00
 2.00000e+00 5.00000e-01 0.00000e+00
 2.40000e+00 5.00000e-01 0.00000e+00
 2.80000e+00 5.00000e-01 0.00000e+00
 3.20000e+00 5.00000e-01 0.00000e+00
 3.60000e+00 5.00000e-01 0.00000e+00
 4.00000e+00 5.00000e-01 0.00000e+00
 4.40000e+00 5.00000e-01 0.00000e+00
 4.80000e+00 5.00000e-01 0.00000e+00
 5.20000e+00 5.00000e-01 0.00000e+00
 5.60000e+00 5.00000e-01 0.00000e+00
 6.00000e+00 5.00000e-01 0.00000e+00
 6.40000e+00 5.00000e-01 0.00000e+00
 6.80000e+00 5.00000e-01 0.00000e+00
 7.20000e+00 5.00000e-01 0.00000e+00
 7.60000e+00 5.00000e-01 0.00000e+00
 8.00000e+00 5.00000e-01 0.00000e+00
 8.40000e+00 5.00000e-01 0.00000e+00
 8.80000e+00 5.00000e-01 0.00000e+00
 9.20000e+00 5.00000e-01 0.00000e+00
 9.60000e+00 5.00000e-01 0.00000e+00
 1.00000e+01 5.00000e-01 0.00000e+00
 1.04000e+01 5.00000e-01 0.00000e+00
 1.08000e+01 5.00000e-01 0.00000e+00
 1.12000e+01 5.00000e-01 0.00000e+00
 1.16000e+01 5.00000e-01 0.00000e+00
 1.20000e+01 5.00000e-01 0.00000e+00
 1.24000e+01 5.00000e-01 0.00000e+00
 1.28000e+01 5.00000e-01 0.00000e+00
 1.32000e+01 5.00000e-01 0.00000e+00
 1.36000e+01 5.00000e-01 0.00000e+00
 1.40000e+01 5.00000e-01 0.00000e+00
 1.44000e+01 5.00000e-01 0.00000e+00
 1.48000e+01 5.00000e-01 0.00000e+00
 1.52000e+01 5.00000e-01 0.00000e+00
 1.56000e+01 5.00000e-01 0.00000e+00
 1.60000e+01 5.00000e-01 0.00000e+00
 1.64000e+01 5.00000e-01 0.00000e+00
 1.68000e+01 5.00000e-01 0.00000e+00
 1.72000e+01 5.00000e-01 0.00000e+00
 1.76000e+01 5.00000e-01 0.00000e+00
 1.80000e+01 5.00000e-01 0.00000e+00
 1.84000e+01 5.00000e-01 0.00000e+00
 1.88000e+01 5.00000e-01 0.00000e+00
 1.92000e+01 5.00000e-01 0.00000e+00
 1.96000e+01 5.00000e-01 0.00000e+00
 2.00000e+01 5.00000e-01 0.00000e+00
 0.00000e+00 6.00000e-01 0.00000e+00
 4.00000e-01 6.00000e-01 0.00000e+00
 8.00000e-01 6.00000e-01 0.00000e+00
 1.20000e+00 6.00000e-01 0.00000e+00
 1.60000e+00 6.00000e-01 0.00000e+00
 2.00000e+00 6.00000e-01 0.00000e+00
 2.40000e+00 6.00000e-01 0.00000e+00
 2.80000e+00 6.00000e-01 0.00000e+00
 3.20000e+00 6.00000e-01 0.00000e+00
 3.60000e+00 6.00000e-01 0.00000e+00
 4.00000e+00 6.00000e-01 0.00000e+00
 4.40000e+00 6.00000e-01 0.00000e+00
 4.80000e+00 6.00000e-01 0.00000e+00
 5.20000e+00 6.00000e-01 0.00000e+00
 5.60000e+00 6.00000e-01 0.00000e+00
 6.00000e+00 6.00000e-01 0.00000e+00
 6.40000e+00 6.00000e-01 0.00000e+00
 6.80000e+00 6.00000e-01 0.00000e+00
 7.20000e+00 6.00000e-01 0.00000e+00
 7.60000e+00 6.00000e-01 0.00000e+00
 8.00000e+00 6.00000e-01 0.00000e+00
 8.40000e+00 6.00000e-01 0.00000e+00
 8.80000e+00 6.00000e-01 0.00000e+00
 9.20000e+00 6.00000e-01 0.00000e+00
 9.60000e+00 6.00000e-01 0.00000e+00
 1.00000e+01 6.00000e-01 0.00000e+00
 1.04000e+01 6.00000e-01 0.00000e+00
 1.08000e+01 6.00000e-01 0.00000e+00
 1.12000e+01 6.00000e-01 0.00000e+00
 1.16000e+01 6.00000e-01 0.00000e+00
 1.20000e+01 6.00000e-01 0.00000e+00
 1.24000e+01 6.00000e-01 0.00000e+00
 1.28000e+01 6.00000e-01 0.00000e+00
 1.32000e+01 6.00000e-01 0.00000e+00
 1.36000e+01 6.00000e-01 0.00000e+00
 1.40000e+01 6.00000e-01 0.00000e+00
 1.44000e+01 6.00000e-01 0.00000e+00
 1.48000e+01 6.00000e-01 0.00000e+00
 1.52000e+01 6.00000e-01 0.00000e+00
 1.56000e+01 6.00000e-01 0.00000e+00
 1.60000e+01 6.00000e-01 0.00000e+00
 1.64000e+01 6.00000e-01 0.00000e+00
 1.68000e+01 6.00000e-01 0.00000e+00
 1.72000e+01 6.00000e-01 0.00000e+00
 1.76000e+01 6.00000e-01 0.00000e+00
 1.80000e+01 6.00000e-01 0.00000e+00
 1.84000e+01 6.00000e-01 0.00000e+00
 1.88000e+01 6.00000e-01 0.00000e+00
 1.92000e+01 6.00000e-01 0.00000e+00
 1.96000e+01 6.00000e-01 0.00000e+00
 2.00000e+01 6.00000e-01 0.00000e+00
 0.00000e+00 7.00000e-01 0.00000e+00
 4.00000e-01 7.00000e-01 0.00000e+00
 8.00000e-01 7.00000e-01 0.00000e+00
 1.20000e+00 7.00000e-01 0.00000e+00
 1.60000e+00 7.00000e-01 0.00000e+00
 2.00000e+00 7.00000e-01 0.00000e+00
 2.40000e+00 7.00000e-01 0.00000e+00
 2.80000e+00 7.00000e-01 0.00000e+00
 3.20000e+00 7.00000e-01 0.00000e+00
 3.60000e+00 7.00000e-01 0.00000e+00
 4.00000e+00 7.00000e-01 0.00000e+00
 4.40000e+00 7.00000e-01 0.00000e+00
 4.80000e+00 7.00000e-01 0.00000e+00
 5.20000e+00 7.00000e-01 0.00000e+00
 5.60000e+00 7.00000e-01 0.00000e+00
 6.00000e+00 7.00000e-01 0.00000e+00
 6.40000e+00 7.00000e-01 0.00000e+00
 6.80000e+00 7.00000e-01 0.00000e+00
 7.20000e+00 7.00000e-01 0.00000e+00
 7.60000e+00 7.00000e-01 0.00000e+00
 8.00000e+00 7.00000e-01 0.00000e+00
 8.40000e+00 7.00000e-01 0.00000e+00
 8.80000e+00 7.00000e-01 0.00000e+00
 9.20000e+00 7.00000e-01 0.00000e+00
 9.60000e+00 7.00000e-01 0.00000e+00
 1.00000e+01 7.00000e-01 0.00000e+00
 1.04000e+01 7.00000e-01 0.00000e+00
 1.08000e+01 7.00000e-01 0.00000e+00
 1.12000e+01 7.00000e-01 0.00000e+00
 1.16000e+01 7.00000e-01 0.00000e+00
 1.20000e+01 7.00000e-01 0.00000e+00
 1.24000e+01 7.00000e-01 0.00000e+00
 1.28000e+01 7.00000e-01 0.00000e+00
 1.32000e+01 7.00000e-01 0.00000e+00
 1.36000e+01 7.00000e-01 0.00000e+00
 1.40000e+01 7.00000e-01 0.00000e+00
 1.44000e+01 7.00000e-01 0.00000e+00
 1.48000e+01 7.00000e-01 0.00000e+00
 1.52000e+01 7.00000e-01 0.00000e+00
 1.56000e+01 7.00000e-01 0.00000e+00
 1.60000e+01 7.00000e-01 0.00000e+00
 1.64000e+01 7.00000e-01 0.00000e+00
 1.68000e+01 7.00000e-01 0.00000e+00
 1.72000e+01 7.00000e-01 0.00000e+00
 1.76000e+01 7.00000e-01 0.00000e+00
 1.80000e+01 7.00000e-01 0.00000e+00
 1.84000e+01 7.00000e-01 0.00000e+00
 1.88000e+01 7.00000e-01 0.00000e+00
 1.92000e+01 7.00000e-01 0.00000e+00
 1.96000e+01 7.00000e-01 0.00000e+00
 2.00000e+01 7.00000e-01 0.00000e+00
 0.00000e+00 8.00000e-01 0.00000e+00
 4.00000e-01 8.00000e-01 0.00000e+00
 8.00000e-01 8.00000e-01 0.00000e+00
 1.20000e+00 8.00000e-01 0.00000e+00
 1.60000e+00 8.00000e-01 0.00000e+00
 2.00000e+00 8.00000e-01 0.00000e+00
 2.40000e+00 8.00000e-01 0.00000e+00
 2.80000e+00 8.00000e-01 0.00000e+00
 3.20000e+00 8.00000e-01 0.00000e+00
 3.60000e+00 8.00000e-01 0.00000e+00
 4.00000e+00 8.00000e-01 0.00000e+00
 4.40000e+00 8.00000e-01 0.00000e+00
 4.80000e+00 8.00000e-01 0.00000e+00
 5.20000e+00 8.00000e-01 0.00000e+00
 5.60000e+00 8.00000e-01 0.00000e+00
 6.00000e+00 8.00000e-01 0.00000e+00
 6.40000e+00 8.00000e-01 0.00000e+00
 6.80000e+00 8.00000e-01 0.00000e+00
 7.20000e+00 8.00000e-01 0.00000e+00
 7.60000e+00 8.00000e-01 0.00000e+00
 8.00000e+00 8.00000e-01 0.00000e+00
 8.40000e+00 8.00000e-01 0.00000e+00
 8.80000e+00 8.00000e-01 0.00000e+00
 9.20000e+00 8.00000e-01 0.00000e+00
 9.60000e+00 8.00000e-01 0.00000e+00
 1.00000e+01 8.00000e-01 0.00000e+00
 1.04000e+01 8.00000e-01 0.00000e+00
 1.08000e+01 8.00000e-01 0.00000e+00
 1.12000e+01 8.00000e-01 0.00000e+00
 1.16000e+01 8.00000e-01 0.00000e+00
 1.20000e+01 8.00000e-01 0.00000e+00
 1.24000e+01 8.00000e-01 0.00000e+00
 1.28000e+01 8.00000e-01 0.00000e+00
 1.32000e+01 8.00000e-01 0.00000e+00
 1.36000e+01 8.00000e-01 0.00000e+00
 1.40000e+01 8.00000e-01 0.00000e+00
 1.44000e+01 8.00000e-01 0.00000e+00
 1.48000e+01 8.00000e-01 0.00000e+00
 1.52000e+01 8.00000e-01 0.00000e+00
 1.56000e+01 8.00000e-01 0.00000e+00
 1.60000e+01 8.00000e-01 0.00000e+00
 1.64000e+01 8.00000e-01 0.00000e+00
 1.68000e+01 8.00000e-01 0.00000e+00
 1.72000e+01 8.00000e-01 0.00000e+00
 1.76000e+01 8.00000e-01 0.00000e+00
 1.80000e+01 8.00000e-01 0.00000e+00
 1.84000e+01 8.00000e-01 0.00000e+00
 1.88000e+01 8.00000e-01 0.00000e+00
 1.92000e+01 8.00000e-01 0.00000e+00
 1.96000e+01 8.00000e-01 0.00000e+00
 2.00000e+01 8.00000e-01 0.00000e+00
 0.00000e+00 9.00000e-01 0.00000e+00
 4.00000e-01 9.00000e-01 0.00000e+00
 8.00000e-01 9.00000e-01 0.00000e+00
 1.20000e+00 9.00000e-01 0.00000e+00
 1.60000e+00 9.00000e-01 0.00000e+00
 2.00000e+00 9.00000e-01 0.00000e+00
 2.40000e+00 9.00000e-01 0.00000e+00
 2.80000e+00 9.00000e-01 0.00000e+00
 3.20000e+00 9.00000e-01 0.00000e+00
 3.60000e+00 9.00000e-01 0.00000e+00
 4.00000e+00 9.00000e-01 0.00000e+00
 4.40000e+00 9.00000e-01 0.00000e+00
 4.80000e+00 9.00000e-01 0.00000e+00
 5.20000e+00 9.00000e-01 0.00000e+00
 5.60000e+00 9.00000e-01 0.00000e+00
 6.00000e+00 9.00000e-01 0.00000e+00
 6.40000e+00 9.00000e-01 0.00000e+00
 6.80000e+00 9.00000e-01 0.00000e+00
 7.20000e+00 9.00000e-01 0.00000e+00
 7.60000e+00 9.00000e-01 0.00000e+00
 8.00000e+00 9.00000e-01 0.00000e+00
 8.40000e+00 9.00000e-01 0.00000e+00
 8.80000e+00 9.00000e-01 0.00000e+00
 9.20000e+00 9.00000e-01 0.00000e+00
 9.60000e+00 9.00000e-01 0.00000e+00
 1.00000e+01 9.00000e-01 0.00000e+00
 1.04000e+01 9.00000e-01 0.00000e+00
 1.08000e+01 9.00000e-01 0.00000e+00
 1.12000e+01 9.00000e-01 0.00000e+00
 1.16000e+01 9.00000e-01 0.00000e+00
 1.20000e+01 9.00000e-01 0.00000e+00
 1.24000e+01 9.00000e-01 0.00000e+00
 1.28000e+01 9.00000e-01 0.00000e+00
 1.32000e+01 9.00000e-01 0.00000e+00
 1.36000e+01 9.00000e-01 0.00000e+00
 1.40000e+01 9.00000e-01 0.00000e+00
 1.44000e+01 9.00000e-01 0.00000e+00
 1.48000e+01 9.00000e-01 0.00000e+00
 1.52000e+01 9.00000e-01 0.00000e+00
 1.56000e+01 9.00000e-01 0.00000e+00
 1.60000e+01 9.00000e-01 0.00000e+00
 1.64000e+01 9.00000e-01 0.00000e+00
 1.68000e+01 9.00000e-01 0.00000e+00
 1.72000e+01 9.00000e-01 0.00000e+00
 1.76000e+01 9.00000e-01 0.00000e+00
 1.80000e+01 9.00000e-01 0.00000e+00
 1.84000e+01 9.00000e-01 0.00000e+00
 1.88000e+01 9.00000e-01 0.00000e+00
 1.92000e+01 9.00000e-01 0.00000e+00
 1.96000e+01 9.00000e-01 0.00000e+00
 2.00000e+01 9.00000e-01 0.00000e+00
 0.00000e+00 1.00000e+00 0.00000e+00
 4.00000e-01 1.00000e+00 0.00000e+00
 8.00000e-01 1.00000e+00 0.00000e+00
 1.20000e+00 1.00000e+00 0.00000e+00
 1.60000e+00 1.00000e+00 0.00000e+00
 2.00000e+00 1.00000e+00 0.00000e+00
 2.40000e+00 1.00000e+00 0.00000e+00
 2.80000e+00 1.00000e+00 0.00000e+00
 3.20000e+00 1.00000e+00 0.00000e+00
 3.60000e+00 1.00000e+00 0.00000e+00
 4.00000e+00 1.00000e+00 0.00000e+00
 4.40000e+00 1.00000e+00 0.00000e+00
 4.80000e+00 1.00000e+00 0.00000e+00
 5.20000e+00 1.00000e+00 0.00000e+00
 5.60000e+00 1.00000e+00 0.00000e+00
 6.00000e+00 1.00000e+00 0.00000e+00
 6.40000e+00 1.00000e+00 0.00000e+00
 6.80000e+00 1.00000e+00 0.00000e+00
 7.20000e+00 1.00000e+00 0.00000e+00
 7.60000e+00 1.00000e+00 0.00000e+00
 8.00000e+00 1.00000e+00 0.00000e+00
 8.40000e+00 1.00000e+00 0.00000e+00
 8.80000e+00 1.00000e+00 0.00000e+00
 9.20000e+00 1.00000e+00 0.00000e+00
 9.60000e+00 1.00000e+00 0.00000e+00
 1.00000e+01 1.00000e+00 0.00000e+00
 1.04000e+01 1.00000e+00 0.00000e+00
 1.08000e+01 1.00000e+00 0.00000e+00
 1.12000e+01 1.00000e+00 0.00000e+00
 1.16000e+01 1.00000e+00 0.00000e+00
 1.20000e+01 1.00000e+00 0.00000e+00
 1.24000e+01 1.00000e+00 0.00000e+00
 1.28000e+01 1.00000e+00 0.00000e+00
 1.32000e+01 1.00000e+00 0.00000e+00
 1.36000e+01 1.00000e+00 0.00000e+00
 1.40000e+01 1.00000e+00 0.00000e+00
 1.44000e+01 1.00000e+00 0.00000e+00
 1.48000e+01 1.00000e+00 0.00000e+00
 1.52000e+01 1.00000e+00 0.00000e+00
 1.56000e+01 1.00000e+00 0.00000e+00
 1.60000e+01 1.00000e+00 0.00000e+00
 1.64000e+01 1.00000e+00 0.00000e+00
 1.68000e+01 1.00000e+00 0.00000e+00
 1.72000e+01 1.00000e+00 0.00000e+00
 1.76000e+01 1.00000e+00 0.00000e+00
 1.80000e+01 1.00000e+00 0.00000e+00
 1.84000e+01 1.00000e+00 0.00000e+00
 1.88000e+01 1.00000e+00 0.00000e+00
 1.92000e+01 1.00000e+00 0.00000e+00
 1.96000e+01 1.00000e+00 0.00000e+00
 2.00000e+01 1.00000e+00 0.00000e+00
part       1
MeshLabel 0
bar2
     100
       1       2
       2       3
       3       4
       4       5
       5       6
       6       7
       7       8
       8       9
       9      10
      10      11
      11      12
      12      13
      13      14
      14      15
      15      16
      16      17
      17      18
      18      19
      19      20
      20      21
      21      22
      22      23
      23      24
      24      25
      25      26
      26      27
      27      28
      28      29
      29      30
      30      31
      31      32
      32      33
      33      34
      34      35
      35      36
      36      37
      37      38
      38      39
      39      40
      40      41
      41      42
      42      43
      43      44
      44      45
      45      46
      46      47
      47      48
      48      49
      49      50
      50      51
    1022    1021
    1023    1022
    1024    1023
    1025    1024
    1026    1025
    1027    1026
    1028    1027
    1029    1028
    1030    1029
    1031    1030
    1032    1031
    1033    1032
    1034    1033
    1035    1034
    1036    1035
    1037    1036
    1038    1037
    1039    1038
    1040    1039
    1041    1040
    1042    1041
    1043    1042
    1044    1043
    1045    1044
    1046    1045
    1047    1046
    1048    1047
    1049    1048
    1050    1049
    1051    1050
    1052    1051
    1053    1052
    1054    1053
    1055    1054
    1056    1055
    1057    1056
    1058    1057
    1059    1058
    1060    1059
    1061    1060
    1062    1061
    1063    1062
    1064    1063
    1065    1064
    1066    1065
    1067    1066
    1068    1067
    1069    1068
    1070    1069
    1071    1070
tria3
    2000
       1       2      53
       1      53      52
       2       3      54
       2      54      53
       3       4      55
       3      55      54
       4       5      56
       4      56      55
       5       6      57
       5      57      56
       6       7      58
       6      58      57
       7       8      59
       7      59      58
       8       9      60
       8      60      59
       9      10      61
       9      61      60
      10      11      62
      10      62      61
      11      12      63
      11      63      62
      12      13      64
      12      64      63
      13      14      65
      13      65      64
      14      15      66
      14      66      65
      15      16      67
      15      67      66
      16      17      68
      16      68      67
      17      18      69
      17      69      68
      18      19      70
      18      70      69
      19      20      71
      19      71      70
      20      21      72
      20      72      71
      21      22      73
      21      73      72
      22      23      74
      22      74      73
      23      24      75
      23      75      74
      24      25      76
      24      76      75
      25      26      77
      25      77      76
      26      27      78
      26      78      77
      27      28      79
      27      79      78
      28      29      80
      28      80      79
      29      30      81
      29      81      80
      30      31      82
      30      82      81
      31      32      83
      31      83      82
      32      33      84
      32      84      83
      33      34      85
      33      85      84
      34      35      86
      34      86      85
      35      36      87
      35      87      86
      36      37      88
      36      88      87
      37      38      89
      37      89      88
      38      39      90
      38      90      89
      39      40      91
      39      91      90
      40      41      92
      40      92      91
      41      42      93
      41      93      92
      42      43      94
      42      94      93
      43      44      95
      43      95      94
      44      45      96
      44      96      95
      45      46      97
      45      97      96
      46      47      98
      46      98      97
      47      48      99
      47      99      98
      48      49     100
      48     100      99
      49      50     101
      49     101     100
      50      51     102
      50     102     101
      52      53     104
      52     104     103
      53      54     105
      53     105     104
      54      55     106
      54     106     105
      55      56     107
      55     107     106
      56      57     108
      56     108     107
      57      58     109
      57     109     108
      58      59     110
      58     110     109
      59      60     111
      59     111     110
      60      61     112
      60     112     111
      61      62     113
      61     113     112
      62      63     114
      62     114     113
      63      64     115
      63     115     114
      64      65     116
      64     116     115
      65      66     117
      65     117     116
      66      67     118
      66     118     117
      67      68     119
      67     119     118
      68      69     120
      68     120     119
      69      70     121
      69     121     120
      70      71     122
      70     122     121
      71      72     123
      71     123     122
      72      73     124
      72     124     123
      73      74     125
      73     125     124
      74      75     126
      74     126     125
      75      76     127
      75     127     126
      76      77     128
      76     128     127
      77      78     129
      77     129     128
      78      79     130
      78     130     129
      79      80     131
      79     131     130
      80      81     132
      80     132     131
      81      82     133
      81     133     132
      82      83     134
      82     134     133
      83      84     135
      83     135     134
      84      85     136
      84     136     135
      85      86     137
      85     137     136
      86      87     138
      86     138     137
      87      88     139
      87     139     138
      88      89     140
      88     140     139
      89      90     141
      89     141     140
      90      91     142
      90     142     141
      91      92     143
      91     143     142
      92      93     144
      92     144     143
      93      94     145
      93     145     144
      94      95     146
      94     146     145
      95      96     147
      95     147     146
      96      97     148
      96     148     147
      97      98     149
      97     149     148
      98      99     150
      98     150     149
      99     100     151
      99     151     150
     100     101     152
     100     152     151
     101     102     153
     101     153     152
     103     104     155
     103     155     154
     104     105     156
     104     156     155
     105     106     157
     105     157     156
     106     107     158
     106     158     157
     107     108     159
     107     159     158
     108     109     160
     108     160     159
     109     110     161
     109     161     160
     110     111     162
     110     162     161
     111     112     163
     111     163     162
     112     113     164
     112     164     163
     113     114     165
     113     165     164
     114     115     166
     114     166     165
     115     116     167
     115     167     166
     116     117     168
     116     168     167
     117     118     169
     117     169     168
     118     119     170
     118     170     169
     119     120     171
     119     171     170
     120     121     172
     120     172     171
     121     122     173
     121     173     172
     122     123     174
     122     174     173
     123     124     175
     123     175     174
     124     125     176
     124     176     175
     125     126     177
     125     177     176
     126     127     178
     126     178     177
     127     128     179
     127     179     178
     128     129     180
     128     180     179
     129     130     181
     129     181     180
     130     131     182
     130     182     181
     131     132     183
     131     183     182
     132     133     184
     132     184     183
     133     134     185
     133     185     184
     134     135     186
     134     186     185
     135     136     187
     135     187     186
     136     137     188
     136     188     187
     137     138     189
     137     189     188
     138     139     190
     138     190     189
     139     140     191
     139     191     190
     140     141     192
     140     192     191
     141     142     193
     141     193     192
     142     143     194
     142     194     193
     143     144     195
     143     195     194
     144     145     196
     144     196     195
     145     146     197
     145     197     196
     146     147     198
     146     198     197
     147     148     199
     147     199     198
     148     149     200
     148     200     199
     149     150     201
     149     201     200
     150     151     202
     150     202     201
     151     152     203
     151     203     202
     152     153     204
     152     204     203
     154     155     206
     154     206     205
     155     156     207
     155     207     206
     156     157     208
     156     208     207
     157     158     209
     157     209     208
     158     159     210
     158     210     209
     159     160     211
     159     211     210
     160     161     212
     160     212     211
     161     162     213
     161     213     212
     162     163     214
     162     214     213
     163     164     215
     163     215     214
     164     165     216
     164     216     215
     165     166     217
     165     217     216
     166     167     218
     166     218     217
     167     168     219
     167     219     218
     168     169     220
     168     220     219
     169     170     221
     169     221     220
     170     171     222
     170     222     221
     171     172     223
     171     223     222
     172     173     224
     172     224     223
     173     174     225
     173     225     224
     174     175     226
     174     226     225
     175     176     227
     175     227     226
     176     177     228
     176     228     227
     177     178     229
     177     229     228
     178     179     230
     178     230     229
     179     180     231
     179     231     230
     180     181     232
     180     232     231
     181     182     233
     181     233     232
     182     183     234
     182     234     233
     183     184     235
     183     235     234
     184     185     236
     184     236     235
     185     186     237
     185     237     236
     186     187     238
     186     238     237
     187     188     239
     187     239     238
     188     189     240
     188     240     239
     189     190     241
     189     241     240
     190     191     242
     190     242     241
     191     192     243
     191     243     242
     192     193     244
     192     244     243
     193     194     245
     193     245     244
     194     195     246
     194     246     245
     195     196     247
     195     247     246
     196     197     248
     196     248     247
     197     198     249
     197     249     248
     198     199     250
     198     250     249
     199     200     251
     199     251     250
     200     201     252
     200     252     251
     201     202     253
     201     253     252
     202     203     254
     202     254     253
     203     204     255
     203     255     254
     205     206     257
     205     257     256
     206     207     258
     206     258     257
     207     208     259
     207     259     258
     208     209     260
     208     260     259
     209     210     261
     209     261     260
     210     211     262
     210     262     261
     211     212     263
     211     263     262
     212     213     264
     212     264     263
     213     214     265
     213     265     264
     214     215     266
     214     266     265
     215     216     267
     215     267     266
     216     217     268
     216     268     267
     217     218     269
     217     269     268
     218     219     270
     218     270     269
     219     220     271
     219     271     270
     220     221     272
     220     272     271
     221     222     273
     221     273     272
     222     223     274
     222     274     273
     223     224     275
     223     275     274
     224     225     276
     224     276     275
     225     226     277
     225     277     276
     226     227     278
     226     278     277
     227     228     279
     227     279     278
     228     229     280
     228     280     279
     229     230     281
     229     281     280
     230     231     282
     230     282     281
     231     232     283
     231     283     282
     232     233     284
     232     284     283
     233     234     285
     233     285     284
     234     235     286
     234     286     285
     235     236     287
     235     287     286
     236     237     288
     236     288     287
     237     238     289
     237     289     288
     238     239     290
     238     290     289
     239     240     291
     239     291     290
     240     241     292
     240     292     291
     241     242     293
     241     293     292
     242     243     294
     242     294     293
     243     244     295
     243     295     294
     244     245     296
     244     296     295
     245     246     297
     245     297     296
     246     247     298
     246     298     297
     247     248     299
     247     299     298
     248     249     300
     248     300     299
     249     250     301
     249     301     300
     250     251     302
     250     302     301
     251     252     303
     251     303     302
     252     253     304
     252     304     303
     253     254     305
     253     305     304
     254     255     306
     254     306     305
     256     257     308
     256     308     307
     257     258     309
     257     309     308
     258     259     310
     258     310     309
     259     260     311
     259     311     310
     260     261     312
     260     312     311
     261     262     313
     261     313     312
     262     263     314
     262     314     313
     263     264     315
     263     315     314
     264     265     316
     264     316     315
     265     266     317
     265     317     316
     266     267     318
     266     318     317
     267     268     319
     267     319     318
     268     269     320
     268     320     319
     269     270     321
     269     321     320
     270     271     322
     270     322     321
     271     272     323
     271     323     322
     272     273     324
     272     324     323
     273     274     325
     273     325     324
     274     275     326
     274     326     325
     275     276     327
     275     327     326
     276     277     328
     276     328     327
     277     278     329
     277     329     328
     278     279     330
     278     330     329
     279     280     331
     279     331     330
     280     281     332
     280     332     331
     281     282     333
     281     333     332
     282     283     334
     282     334     333
     283     284     335
     283     335     334
     284     285     336
     284     336     335
     285     286     337
     285     337     336
     286     287     338
     286     338     337
     287     288     339
     287     339     338
     288     289     340
     288     340     339
     289     290     341
     289     341     340
     290     291     342
     290     342     341
     291     292     343
     291     343     342
     292     293     344
     292     344     343
     293     294     345
     293     345     344
     294     295     346
     294     346     345
     295     296     347
     295     347     346
     296     297     348
     296     348     347
     297     298     349
     297     349     348
     298     299     350
     298     350     349
     299     300     351
     299     351     350
     300     301     352
     300     352     351
     301     302     353
     301     353     352
     302     303     354
     302     354     353
     303     304     355
     303     355     354
     304     305     356
     304     356     355
     305     306     357
     305     357     356
     307     308     359
     307     359     358
     308     309     360
     308     360     359
     309     310     361
     309     361     360
     310     311     362
     310     362     361
     311     312     363
     311     363     362
     312     313     364
     312     364     363
     313     314     365
     313     365     364
     314     315     366
     314     366     365
     315     316     367
     315     367     366
     316     317     368
     316     368     367
     317     318     369
     317     369     368
     318     319     370
     318     370     369
     319     320     371
     319     371     370
     320     321     372
     320     372     371
     321     322     373
     321     373     372
     322     323     374
     322     374     373
     323     324     375
     323     375     374
     324     325     376
     324     376     375
     325     326     377
     325     377     376
     326     327     378
     326     378     377
     327     328     379
     327     379     378
     328     329     380
     328     380     379
     329     330     381
     329     381     380
     330     331     382
     330     382     381
     331     332     383
     331     383     382
     332     333     384
     332     384     383
     333     334     385
     333     385     384
     334     335     386
     334     386     385
     335     336     387
     335     387     386
     336     337     388
     336     388     387
     337     338     389
     337     389     388
     338     339     390
     338     390     389
     339     340     391
     339     391     390
     340     341     392
     340     392     391
     341     342     393
     341     393     392
     342     343     394
     342     394     393
     343     344     395
     343     395     394
     344     345     396
     344     396     395
     345     346     397
     345     397     396
     346     347     398
     346     398     397
     347     348     399
     347     399     398
     348     349     400
     348     400     399
     349     350     401
     349     401     400
     350     351     402
     350     402     401
     351     352     403
     351     403     402
     352     353     404
     352     404     403
     353     354     405
     353     405     404
     354     355     406
     354     406     405
     355     356     407
     355     407     406
     356     357     408
     356     408     407
     358     359     410
     358     410     409
     359     360     411
     359     411     410
     360     361     412
     360     412     411
     361     362     413
     361     413     412
     362     363     414
     362     414     413
     363     364     415
     363     415     414
     364     365     416
     364     416     415
     365     366     417
     365     417     416
     366     367     418
     366     418     417
     367     368     419
     367     419     418
     368     369     420
     368     420     419
     369     370     421
     369     421     420
     370     371     422
     370     422     421
     371     372     423
     371     423     422
     372     373     424
     372     424     423
     373     374     425
     373     425     424
     374     375     426
     374     426     425
     375     376     427
     375     427     426
     376     377     428
     376     428     427
     377     378     429
     377     429     428
     378     379     430
     378     430     429
     379     380     431
     379     431     430
     380     381     432
     380     432     431
     381     382     433
     381     433     432
     382     383     434
     382     434     433
     383     384     435
     383     435     434
     384     385     436
     384     436     435
     385     386     437
     385     437     436
     386     387     438
     386     438     437
     387     388     439
     387     439     438
     388     389     440
     388     440     439
     389     390     441
     389     441     440
     390     391     442
     390     442     441
     391     392     443
     391     443     442
     392     393     444
     392     444     443
     393     394     445
     393     445     444
     394     395     446
     394     446     445
     395     396     447
     395     447     446
     396     397     448
     396     448     447
     397     398     449
     397     449     448
     398     399     450
     398     450     449
     399     400     451
     399     451     450
     400     401     452
     400     452     451
     401     402     453
     401     453     452
     402     403     454
     402     454     453
     403     404     455
     403     455     454
     404     405     456
     404     456     455
     405     406     457
     405     457     456
     406     407     458
     406     458     457
     407     408     459
     407     459     458
     409     410     461
     409     461     460
     410     411     462
     410     462     461
     411     412     463
     411     463     462
     412     413     464
     412     464     463
     413     414     465
     413     465     464
     414     415     466
     414     466     465
     415     416     467
     415     467     466
     416     417     468
     416     468     467
     417     418     469
     417     469     468
     418     419     470
     418     470     469
     419     420     471
     419     471     470
     420     421     472
     420     472     471
     421     422     473
     421     473     472
     422     423     474
     422     474     473
     423     424     475
     423     475     474
     424     425     476
     424     476     475
     425     426     477
     425     477     476
     426     427     478
     426     478     477
     427     428     479
     427     479     478
     428     429     480
     428     480     479
     429     430     481
     429     481     480
     430     431     482
     430     482     481
     431     432     483
     431     483     482
     432     433     484
     432     484     483
     433     434     485
     433     485     484
     434     435     486
     434     486     485
     435     436     487
     435     487     486
     436     437     488
     436     488     487
     437     438     489
     437     489     488
     438     439     490
     438     490     489
     439     440     491
     439     491     490
     440     441     492
     440     492     491
     441     442     493
     441     493     492
     442     443     494
     442     494     493
     443     444     495
     443     495     494
     444     445     496
     444     496     495
     445     446     497
     445     497     496
     446     447     498
     446     498     497
     447     448     499
     447     499     498
     448     449     500
     448     500     499
     449     450     501
     449     501     500
     450     451     502
     450     502     501
     451     452     503
     451     503     502
     452     453     504
     452     504     503
     453     454     505
     453     505     504
     454     455     506
     454     506     505
     455     456     507
     455     507     506
     456     457     508
     456     508     507
     457     458     509
     457     509     508
     458     459     510
     458     510     509
     460     461     512
     460     512     511
     461     462     513
     461     513     512
     462     463     514
     462     514     513
     463     464     515
     463     515     514
     464     465     516
     464     516     515
     465     466     517
     465     517     516
     466     467     518
     466     518     517
     467     468     519
     467     519     518
     468     469     520
     468     520     519
     469     470     521
     469     521     520
     470     471     522
     470     522     521
     471     472     523
     471     523     522
     472     473     524
     472     524     523
     473     474     525
     473     525     524
     474     475     526
     474     526     525
     475     476     527
     475     527     526
     476     477     528
     476     528     527
     477     478     529
     477     529     528
     478     479     530
     478     530     529
     479     480     531
     479     531     530
     480     481     532
     480     532     531
     481     482     533
     481     533     532
     482     483     534
     482     534     533
     483     484     535
     483     535     534
     484     485     536
     484     536     535
     485     486     537
     485     537     536
     486     487     538
     486     538     537
     487     488     539
     487     539     538
     488     489     540
     488     540     539
     489     490     541
     489     541     540
     490     491     542
     490     542     541
     491     492     543
     491     543     542
     492     493     544
     492     544     543
     493     494     545
     493     545     544
     494     495     546
     494     546     545
     495     496     547
     495     547     546
     496     497     548
     496     548     547
     497     498     549
     497     549     548
     498     499     550
     498     550     549
     499     500     551
     499     551     550
     500     501     552
     500     552     551
     501     502     553
     501     553     552
     502     503     554
     502     554     553
     503     504     555
     503     555     554
     504     505     556
     504     556     555
     505     506     557
     505     557     556
     506     507     558
     506     558     557
     507     508     559
     507     559     558
     508     509     560
     508     560     559
     509     510     561
     509     561     560
     511     512     563
     511     563     562
     512     513     564
     512     564     563
     513     514     565
     513     565     564
     514     515     566
     514     566     565
     515     516     567
     515     567     566
     516     517     568
     516     568     567
     517     518     569
     517     569     568
     518     519     570
     518     570     569
     519     520     571
     519     571     570
     520     521     572
     520     572     571
     521     522     573
     521     573     572
     522     523     574
     522     574     573
     523     524     575
     523     575     574
     524     525     576
     524     576     575
     525     526     577
     525     577     576
     526     527     578
     526     578     577
     527     528     579
     527     579     578
     528     529     580
     528     580     579
     529     530     581
     529     581     580
     530     531     582
     530     582     581
     531     532     583
     531     583     582
     532     533     584
     532     584     583
     533     534     585
     533     585     584
     534     535     586
     534     586     585
     535     536     587
     535     587     586
     536     537     588
     536     588     587
     537     538     589
     537     589     588
     538     539     590
     538     590     589
     539     540     591
     539     591     590
     540     541     592
     540     592     591
     541     542     593
     541     593     592
     542     543     594
     542     594     593
     543     544     595
     543     595     594
     544     545     596
     544     596     595
     545     546     597
     545     597     596
     546     547     598
     546     598     597
     547     548     599
     547     599     598
     548     549     600
     548     600     599
     549     550     601
     549     601     600
     550     551     602
     550     602     601
     551     552     603
     551     603     602
     552     553     604
     552     604     603
     553     554     605
     553     605     604
     554     555     606
     554     606     605
     555     556     607
     555     607     606
     556     557     608
     556     608     607
     557     558     609
     557     609     608
     558     559     610
     558     610     609
     559     560     611
     559     611     610
     560     561     612
     560     612     611
     562     563     614
     562     614     613
     563     564     615
     563     615     614
     564     565     616
     564     616     615
     565     566     617
     565     617     616
     566     567     618
     566     618     617
     567     568     619
     567     619     618
     568     569     620
     568     620     619
     569     570     621
     569     621     620
     570     571     622
     570     622     621
     571     572     623
     571     623     622
     572     573     624
     572     624     623
     573     574     625
     573     625     624
     574     575     626
     574     626     625
     575     576     627
     575     627     626
     576     577     628
     576     628     627
     577     578     629
     577     629     628
     578     579     630
     578     630     629
     579     580     631
     579     631     630
     580     581     632
     580     632     631
     581     582     633
     581     633     632
     582     583     634
     582     634     633
     583     584     635
     583     635     634
     584     585     636
     584     636     635
     585     586     637
     585     637     636
     586     587     638
     586     638     637
     587     588     639
     587     639     638
     588     589     640
     588     640     639
     589     590     641
     589     641     640
     590     591     642
     590     642     641
     591     592     643
     591     643     642
     592     593     644
     592     644     643
     593     594     645
     593     645     644
     594     595     646
     594     646     645
     595     596     647
     595     647     646
     596     597     648
     596     648     647
     597     598     649
     597     649     648
     598     599     650
     598     650     649
     599     600     651
     599     651     650
     600     601     652
     600     652     651
     601     602     653
     601     653     652
     602     603     654
     602     654     653
     603     604     655
     603     655     654
     604     605     656
     604     656     655
     605     606     657
     605     657     656
     606     607     658
     606     658     657
     607     608     659
     607     659     658
     608     609     660
     608     660     659
     609     610     661
     609     661     660
     610     611     662
     610     662     661
     611     612     663
     611     663     662
     613     614     665
     613     665     664
     614     615     666
     614     666     665
     615     616     667
     615     667     666
     616     617     668
     616     668     667
     617     618     669
     617     669     668
     618     619     670
     618     670     669
     619     620     671
     619     671     670
     620     621     672
     620     672     671
     621     622     673
     621     673     672
     622     623     674
     622     674     673
     623     624     675
     623     675     674
     624     625     676
     624     676     675
     625     626     677
     625     677     676
     626     627     678
     626     678     677
     627     628     679
     627     679     678
     628     629     680
     628     680     679
     629     630     681
     629     681     680
     630     631     682
     630     682     681
     631     632     683
     631     683     682
     632     633     684
     632     684     683
     633     634     685
     633     685     684
     634     635     686
     634     686     685
     635     636     687
     635     687     686
     636     637     688
     636     688     687
     637     638     689
     637     689     688
     638     639     690
     638     690     689
     639     640     691
     639     691     690
     640     641     692
     640     692     691
     641     642     693
     641     693     692
     642     643     694
     642     694     693
     643     644     695
     643     695     694
     644     645     696
     644     696     695
     645     646     697
     645     697     696
     646     647     698
     646     698     697
     647     648     699
     647     699     698
     648     649     700
     648     700     699
     649     650     701
     649     701     700
     650     651     702
     650     702     701
     651     652     703
     651     703     702
     652     653     704
     652     704     703
     653     654     705
     653     705     704
     654     655     706
     654     706     705
     655     656     707
     655     707     706
     656     657     708
     656     708     707
     657     658     709
     657     709     708
     658     659     710
     658     710     709
     659     660     711
     659     711     710
     660     661     712
     660     712     711
     661     662     713
     661     713     712
     662     663     714
     662     714     713
     664     665     716
     664     716     715
     665     666     717
     665     717     716
     666     667     718
     666     718     717
     667     668     719
     667     719     718
     668     669     720
     668     720     719
     669     670     721
     669     721     720
     670     671     722
     670     722     721
     671     672     723
     671     723     722
     672     673     724
     672     724     723
     673     674     725
     673     725     724
     674     675     726
     674     726     725
     675     676     727
     675     727     726
     676     677     728
     676     728     727
     677     678     729
     677     729     728
     678     679     730
     678     730     729
     679     680     731
     679     731     730
     680     681     732
     680     732     731
     681     682     733
     681     733     732
     682     683     734
     682     734     733
     683     684     735
     683     735     734
     684     685     736
     684     736     735
     685     686     737
     685     737     736
     686     687     738
     686     738     737
     687     688     739
     687     739     738
     688     689     740
     688     740     739
     689     690     741
     689     741     740
     690     691     742
     690     742     741
     691     692     743
     691     743     742
     692     693     744
     692     744     743
     693     694     745
     693     745     744
     694     695     746
     694     746     745
     695     696     747
     695     747     746
     696     697     748
     696     748     747
     697     698     749
     697     749     748
     698     699     750
     698     750     749
     699     700     751
     699     751     750
     700     701     752
     700     752     751
     701     702     753
     701     753     752
     702     703     754
     702     754     753
     703     704     755
     703     755     754
     704     705     756
     704     756     755
     705     706     757
     705     757     756
     706     707     758
     706     758     757
     707     708     759
     707     759     758
     708     709     760
     708     760     759
     709     710     761
     709     761     760
     710     711     762
     710     762     761
     711     712     763
     711     763     762
     712     713     764
     712     764     763
     713     714     765
     713     765     764
     715     716     767
     715     767     766
     716     717     768
     716     768     767
     717     718     769
     717     769     768
     718     719     770
     718     770     769
     719     720     771
     719     771     770
     720     721     772
     720     772     771
     721     722     773
     721     773     772
     722     723     774
     722     774     773
     723     724     775
     723     775     774
     724     725     776
     724     776     775
     725     726     777
     725     777     776
     726     727     778
     726     778     777
     727     728     779
     727     779     778
     728     729     780
     728     780     779
     729     730     781
     729     781     780
     730     731     782
     730     782     781
     731     732     783
     731     783     782
     732     733     784
     732     784     783
     733     734     785
     733     785     784
     734     735     786
     734     786     785
     735     736     787
     735     787     786
     736     737     788
     736     788     787
     737     738     789
     737     789     788
     738     739     790
     738     790     789
     739     740     791
     739     791     790
     740     741     792
     740     792     791
     741     742     793
     741     793     792
     742     743     794
     742     794     793
     743     744     795
     743     795     794
     744     745     796
     744     796     795
     745     746     797
     745     797     796
     746     747     798
     746     798     797
     747     748     799
     747     799     798
     748     749     800
     748     800     799
     749     750     801
     749     801     800
     750     751     802
     750     802     801
     751     752     803
     751     803     802
     752     753     804
     752     804     803
     753     754     805
     753     805     804
     754     755     806
     754     806     805
     755     756     807
     755     807     806
     756     757     808
     756     808     807
     757     758     809
     757     809     808
     758     759     810
     758     810     809
     759     760     811
     759     811     810
     760     761     812
     760     812     811
     761     762     813
     761     813     812
     762     763     814
     762     814     813
     763     764     815
     763     815     814
     764     765     816
     764     816     815
     766     767     818
     766     818     817
     767     768     819
     767     819     818
     768     769     820
     768     820     819
     769     770     821
     769     821     820
     770     771     822
     770     822     821
     771     772     823
     771     823     822
     772     773     824
     772     824     823
     773     774     825
     773     825     824
     774     775     826
     774     826     825
     775     776     827
     775     827     826
     776     777     828
     776     828     827
     777     778     829
     777     829     828
     778     779     830
     778     830     829
     779     780     831
     779     831     830
     780     781     832
     780     832     831
     781     782     833
     781     833     832
     782     783     834
     782     834     833
     783     784     835
     783     835     834
     784     785     836
     784     836     835
     785     786     837
     785     837     836
     786     787     838
     786     838     837
     787     788     839
     787     839     838
     788     789     840
     788     840     839
     789     790     841
     789     841     840
     790     791     842
     790     842     841
     791     792     843
     791     843     842
     792     793     844
     792     844     843
     793     794     845
     793     845     844
     794     795     846
     794     846     845
     795     796     847
     795     847     846
     796     797     848
     796     848     847
     797     798     849
     797     849     848
     798     799     850
     798     850     849
     799     800     851
     799     851     850
     800     801     852
     800     852     851
     801     802     853
     801     853     852
     802     803     854
     802     854     853
     803     804     855
     803     855     854
     804     805     856
     804     856     855
     805     806     857
     805     857     856
     806     807     858
     806     858     857
     807     808     859
     807     859     858
     808     809     860
     808     860     859
     809     810     861
     809     861     860
     810     811     862
     810     862     861
     811     812     863
     811     863     862
     812     813     864
     812     864     863
     813     814     865
     813     865     864
     814     815     866
     814     866     865
     815     816     867
     815     867     866
     817     818     869
     817     869     868
     818     819     870
     818     870     869
     819     820     871
     819     871     870
     820     821     872
     820     872     871
     821     822     873
     821     873     872
     822     823     874
     822     874     873
     823     824     875
     823     875     874
     824     825     876
     824     876     875
     825     826     877
     825     877     876
     826     827     878
     826     878     877
     827     828     879
     827     879     878
     828     829     880
     828     880     879
     829     830     881
     829     881     880
     830     831     882
     830     882     881
     831     832     883
     831     883     882
     832     833     884
     832     884     883
     833     834     885
     833     885     884
     834     835     886
     834     886     885
     835     836     887
     835     887     886
     836     837     888
     836     888     887
     837     838     889
     837     889     888
     838     839     890
     838     890     889
     839     840     891
     839     891     890
     840     841     892
     840     892     891
     841     842     893
     841     893     892
     842     843     894
     842     894     893
     843     844     895
     843     895     894
     844     845     896
     844     896     895
     845     846     897
     845     897     896
     846     847     898
     846     898     897
     847     848     899
     847     899     898
     848     849     900
     848     900     899
     849     850     901
     849     901     900
     850     851     902
     850     902     901
     851     852     903
     851     903     902
     852     853     904
     852     904     903
     853     854     905
     853     905     904
     854     855     906
     854     906     905
     855     856     907
     855     907     906
     856     857     908
     856     908     907
     857     858     909
     857     909     908
     858     859     910
     858     910     909
     859     860     911
     859     911     910
     860     861     912
     860     912     911
     861     862     913
     861     913     912
     862     863     914
     862     914     913
     863     864     915
     863     915     914
     864     865     916
     864     916     915
     865     866     917
     865     917     916
     866     867     918
     866     918     917
     868     869     920
     868     920     919
     869     870     921
     869     921     920
     870     871     922
     870     922     921
     871     872     923
     871     923     922
     872     873     924
     872     924     923
     873     874     925
     873     925     924
     874     875     926
     874     926     925
     875     876     927
     875     927     926
     876     877     928
     876     928     927
     877     878     929
     877     929     928
     878     879     930
     878     930     929
     879     880     931
     879     931     930
     880     881     932
     880     932     931
     881     882     933
     881     933     932
     882     883     934
     882     934     933
     883     884     935
     883     935     934
     884     885     936
     884     936     935
     885     886     937
     885     937     936
     886     887     938
     886     938     937
     887     888     939
     887     939     938
     888     889     940
     888     940     939
     889     890     941
     889     941     940
     890     891     942
     890     942     941
     891     892     943
     891     943     942
     892     893     944
     892     944     943
     893     894     945
     893     945     944
     894     895     946
     894     946     945
     895     896     947
     895     947     946
     896     897     948
     896     948     947
     897     898     949
     897     949     948
     898     899     950
     898     950     949
     899     900     951
     899     951     950
     900     901     952
     900     952     951
     901     902     953
     901     953     952
     902     903     954
     902     954     953
     903     904     955
     903     955     954
     904     905     956
     904     956     955
     905     906     957
     905     957     956
     906     907     958
     906     958     957
     907     908     959
     907     959     958
     908     909     960
     908     960     959
     909     910     961
     909     961     960
     910     911     962
     910     962     961
     911     912     963
     911     963     962
     912     913     964
     912     964     963
     913     914     965
     913     965     964
     914     915     966
     914     966     965
     915     916     967
     915     967     966
     916     917     968
     916     968     967
     917     918     969
     917     969     968
     919     920     971
     919     971     970
     920     921     972
     920     972     971
     921     922     973
     921     973     972
     922     923     974
     922     974     973
     923     924     975
     923     975     974
     924     925     976
     924     976     975
     925     926     977
     925     977     976
     926     927     978
     926     978     977
     927     928     979
     927     979     978
     928     929     980
     928     980     979
     929     930     981
     929     981     980
     930     931     982
     930     982     981
     931     932     983
     931     983     982
     932     933     984
     932     984     983
     933     934     985
     933     985     984
     934     935     986
     934     986     985
     935     936     987
     935     987     986
     936     937     988
     936     988     987
     937     938     989
     937     989     988
     938     939     990
     938     990     989
     939     940     991
     939     991     990
     940     941     992
     940     992     991
     941     942     993
     941     993     992
     942     943     994
     942     994     993
     943     944     995
     943     995     994
     944     945     996
     944     996     995
     945     946     997
     945     997     996
     946     947     998
     946     998     997
     947     948     999
     947     999     998
     948     949    1000
     948    1000     999
     949     950    1001
     949    1001    1000
     950     951    1002
     950    1002    1001
     951     952    1003
     951    1003    1002
     952     953    1004
     952    1004    1003
     953     954    1005
     953    1005    1004
     954     955    1006
     954    1006    1005
     955     956    1007
     955    1007    1006
     956     957    1008
     956    1008    1007
     957     958    1009
     957    1009    1008
     958     959    1010
     958    1010    1009
     959     960    1011
     959    1011    1010
     960     961    1012
     960    1012    1011
     961     962    1013
     961    1013    1012
     962     963    1014
     962    1014    1013
     963     964    1015
     963    1015    1014
     964     965    1016
     964    1016    1015
     965     966    1017
     965    1017    1016
     966     967    1018
     966    1018    1017
     967     968    1019
     967    1019    1018
     968     969    1020
     968    1020    1019
     970     971    1022
     970    1022    1021
     971     972    1023
     971    1023    1022
     972     973    1024
     972    1024    1023
     973     974    1025
     973    1025    1024
     974     975    1026
     974    1026    1025
     975     976    1027
     975    1027    1026
     976     977    1028
     976    1028    1027
     977     978    1029
     977    1029    1028
     978     979    1030
     978    1030    1029
     979     980    1031
     979    1031    1030
     980     981    1032
     980    1032    1031
     981     982    1033
     981    1033    1032
     982     983    1034
     982    1034    1033
     983     984    1035
     983    1035    1034
     984     985    1036
     984    1036    1035
     985     986    1037
     985    1037    1036
     986     987    1038
     986    1038    1037
     987     988    1039
     987    1039    1038
     988     989    1040
     988    1040    1039
     989     990    1041
     989    1041    1040
     990     991    1042
     990    1042    1041
     991     992    1043
     991    1043    1042
     992     993    1044
     992    1044    1043
     993     994    1045
     993    1045    1044
     994     995    1046
     994    1046    1045
     995     996    1047
     995    1047    1046
     996     997    1048
     996    1048    1047
     997     998    1049
     997    1049    1048
     998     999    1050
     998    1050    1049
     999    1000    1051
     999    1051    1050
    1000    1001    1052
    1000    1052    1051
    1001    1002    1053
    1001    1053    1052
    1002    1003    1054
    1002    1054    1053
    1003    1004    1055
    1003    1055    1054
    1004    1005    1056
    1004    1056    1055
    1005    1006    1057
    1005    1057    1056
    1006    1007    1058
    1006    1058    1057
    1007    1008    1059
    1007    1059    1058
    1008    1009    1060
    1008    1060    1059
    1009    1010    1061
    1009    1061    1060
    1010    1011    1062
    1010    1062    1061
    1011    1012    1063
    1011    1063    1062
    1012    1013    1064
    1012    1064    1063
    1013    1014    1065
    1013    1065    1064
    1014    1015    1066
    1014    1066    1065
    1015    1016    1067
    1015    1067    1066
    1016    1017    1068
    1016    1068    1067
    1017    1018    1069
    1017    1069    1068
    1018    1019    1070
    1018    1070    1069
    1019    1020    1071
    1019    1071    1070
part       2
MeshLabel 1
bar2
      20
      52       1
     103      52
     154     103
     205     154
     256     205
     307     256
     358     307
     409     358
     460     409
     511     460
     562     511
     613     562
     664     613
     715     664
     766     715
     817     766
     868     817
     919     868
     970     919
    1021     970
part       3
MeshLabel 2
bar2
      20
      51     102
     102     153
     153     204
     204     255
     255     306
     306     357
     357     408
     408     459
     459     510
     510     561
     561     612
     612     663
     663     714
     714     765
     765     816
     816     867
     867     918
     918     969
     969    1020
    1020    1071
