grid solution 
0.000000e+00 0.000000e+00 
5.000000e-01 3.039971e-02 
1.000000e+00 8.258734e-02 
1.500000e+00 1.858375e-01 
2.000000e+00 3.816298e-01 
2.500000e+00 7.209706e-01 
3.000000e+00 1.248614e+00 
3.500000e+00 1.972689e+00 
4.000000e+00 2.830282e+00 
4.500000e+00 3.673483e+00 
5.000000e+00 4.300796e+00 
5.500000e+00 4.533781e+00 
6.000000e+00 4.300778e+00 
6.500000e+00 3.673420e+00 
7.000000e+00 2.830079e+00 
7.500000e+00 1.972060e+00 
8.000000e+00 1.246756e+00 
8.500000e+00 7.157411e-01 
9.000000e+00 3.676834e-01 
9.500000e+00 1.507790e-01 
1.000000e+01 0.000000e+00 
