grid solution 
0.000000e+00 0.000000e+00 
5.000000e-01 6.111010e-02 
1.000000e+00 1.505403e-01 
1.500000e+00 3.001338e-01 
2.000000e+00 5.453671e-01 
2.500000e+00 9.190214e-01 
3.000000e+00 1.437272e+00 
3.500000e+00 2.081428e+00 
4.000000e+00 2.784289e+00 
4.500000e+00 3.432967e+00 
5.000000e+00 3.895200e+00 
5.500000e+00 4.063148e+00 
6.000000e+00 3.895098e+00 
6.500000e+00 3.432643e+00 
7.000000e+00 2.783381e+00 
7.500000e+00 2.079013e+00 
8.000000e+00 1.431134e+00 
8.500000e+00 9.041756e-01 
9.000000e+00 5.113043e-01 
9.500000e+00 2.263005e-01 
1.000000e+01 0.000000e+00 
