grid solution 
0.000000e+00 0.000000e+00 
5.000000e-01 1.388794e-10 
1.000000e+00 1.605228e-08 
1.500000e+00 1.125352e-06 
2.000000e+00 4.785117e-05 
2.500000e+00 1.234098e-03 
3.000000e+00 1.930454e-02 
3.500000e+00 1.831564e-01 
4.000000e+00 1.053992e+00 
4.500000e+00 3.678794e+00 
5.000000e+00 7.788008e+00 
5.500000e+00 1.000000e+01 
6.000000e+00 7.788008e+00 
6.500000e+00 3.678794e+00 
7.000000e+00 1.053992e+00 
7.500000e+00 1.831564e-01 
8.000000e+00 1.930454e-02 
8.500000e+00 1.234098e-03 
9.000000e+00 4.785117e-05 
9.500000e+00 1.125352e-06 
1.000000e+01 0.000000e+00 
