Geometry file
Geometry file
node id assign
element id assign
coordinates
      21
 0.00000e+00 0.00000e+00 0.00000e+00
 5.00000e-01 0.00000e+00 0.00000e+00
 1.00000e+00 0.00000e+00 0.00000e+00
 1.50000e+00 0.00000e+00 0.00000e+00
 2.00000e+00 0.00000e+00 0.00000e+00
 2.50000e+00 0.00000e+00 0.00000e+00
 3.00000e+00 0.00000e+00 0.00000e+00
 3.50000e+00 0.00000e+00 0.00000e+00
 4.00000e+00 0.00000e+00 0.00000e+00
 4.50000e+00 0.00000e+00 0.00000e+00
 5.00000e+00 0.00000e+00 0.00000e+00
 5.50000e+00 0.00000e+00 0.00000e+00
 6.00000e+00 0.00000e+00 0.00000e+00
 6.50000e+00 0.00000e+00 0.00000e+00
 7.00000e+00 0.00000e+00 0.00000e+00
 7.50000e+00 0.00000e+00 0.00000e+00
 8.00000e+00 0.00000e+00 0.00000e+00
 8.50000e+00 0.00000e+00 0.00000e+00
 9.00000e+00 0.00000e+00 0.00000e+00
 9.50000e+00 0.00000e+00 0.00000e+00
 1.00000e+01 0.00000e+00 0.00000e+00
part       1
MeshLabel_1
point
       1
       1
part       2
MeshLabel_2
point
       1
      21
part       3
MeshLabel_3
bar2
      20
       1       2
       2       3
       3       4
       4       5
       5       6
       6       7
       7       8
       8       9
       9      10
      10      11
      11      12
      12      13
      13      14
      14      15
      15      16
      16      17
      17      18
      18      19
      19      20
      20      21
